{
"meta":{"test_sets":[],"test_metrics":[],"learn_metrics":[{"best_value":"Min","name":"Logloss"}],"launch_mode":"Train","parameters":"","iteration_count":1000,"learn_sets":["learn"],"name":"experiment"},
"iterations":[
{"learn":[0.6738475925],"iteration":0,"passed_time":0.0157363487,"remaining_time":15.72061235},
{"learn":[0.6551394918],"iteration":1,"passed_time":0.02589846016,"remaining_time":12.92333162},
{"learn":[0.6356044344],"iteration":2,"passed_time":0.03297401048,"remaining_time":10.95836282},
{"learn":[0.6189061734],"iteration":3,"passed_time":0.03814452836,"remaining_time":9.497987561},
{"learn":[0.6033228778],"iteration":4,"passed_time":0.04513250259,"remaining_time":8.981368015},
{"learn":[0.5876904285],"iteration":5,"passed_time":0.0540959017,"remaining_time":8.961887714},
{"learn":[0.5723395992],"iteration":6,"passed_time":0.06127038004,"remaining_time":8.691641054},
{"learn":[0.5586046274],"iteration":7,"passed_time":0.06897604484,"remaining_time":8.55302956},
{"learn":[0.5455789305],"iteration":8,"passed_time":0.07737659554,"remaining_time":8.520022909},
{"learn":[0.5332145876],"iteration":9,"passed_time":0.08575655273,"remaining_time":8.48989872},
{"learn":[0.521868734],"iteration":10,"passed_time":0.09371789183,"remaining_time":8.426090456},
{"learn":[0.5118004427],"iteration":11,"passed_time":0.09986270581,"remaining_time":8.222029445},
{"learn":[0.5013212201],"iteration":12,"passed_time":0.1072205398,"remaining_time":8.140513293},
{"learn":[0.4921602532],"iteration":13,"passed_time":0.1130711608,"remaining_time":7.963440322},
{"learn":[0.4835366998],"iteration":14,"passed_time":0.1194282664,"remaining_time":7.842456159},
{"learn":[0.4757736202],"iteration":15,"passed_time":0.1274778489,"remaining_time":7.839887707},
{"learn":[0.4679684164],"iteration":16,"passed_time":0.1353517218,"remaining_time":7.826514265},
{"learn":[0.4608987164],"iteration":17,"passed_time":0.1434641019,"remaining_time":7.826763779},
{"learn":[0.4540724957],"iteration":18,"passed_time":0.14946642,"remaining_time":7.717187266},
{"learn":[0.4477909805],"iteration":19,"passed_time":0.1552412523,"remaining_time":7.606821363},
{"learn":[0.4417430607],"iteration":20,"passed_time":0.1623916199,"remaining_time":7.570542662},
{"learn":[0.4362321249],"iteration":21,"passed_time":0.1695119859,"remaining_time":7.535578281},
{"learn":[0.4312304828],"iteration":22,"passed_time":0.1769478383,"remaining_time":7.516436435},
{"learn":[0.4263582129],"iteration":23,"passed_time":0.1841485758,"remaining_time":7.488708749},
{"learn":[0.4216527436],"iteration":24,"passed_time":0.1930934862,"remaining_time":7.530645962},
{"learn":[0.4163379216],"iteration":25,"passed_time":0.200967777,"remaining_time":7.528562109},
{"learn":[0.4122934901],"iteration":26,"passed_time":0.2086281074,"remaining_time":7.518338835},
{"learn":[0.4076381546],"iteration":27,"passed_time":0.2170221345,"remaining_time":7.533768383},
{"learn":[0.4042712513],"iteration":28,"passed_time":0.2254077965,"remaining_time":7.547274841},
{"learn":[0.4003963116],"iteration":29,"passed_time":0.2329170297,"remaining_time":7.530983961},
{"learn":[0.3972908325],"iteration":30,"passed_time":0.2407108702,"remaining_time":7.52415591},
{"learn":[0.3940151873],"iteration":31,"passed_time":0.2482538004,"remaining_time":7.509677463},
{"learn":[0.3905275777],"iteration":32,"passed_time":0.2560819034,"remaining_time":7.503975775},
{"learn":[0.3875069092],"iteration":33,"passed_time":0.2633222434,"remaining_time":7.481449622},
{"learn":[0.384576639],"iteration":34,"passed_time":0.2712212405,"remaining_time":7.477957061},
{"learn":[0.3818214456],"iteration":35,"passed_time":0.2796778439,"remaining_time":7.489151153},
{"learn":[0.3791164401],"iteration":36,"passed_time":0.287910465,"remaining_time":7.493453453},
{"learn":[0.3764733973],"iteration":37,"passed_time":0.2960070873,"remaining_time":7.493653105},
{"learn":[0.3742666219],"iteration":38,"passed_time":0.3030261841,"remaining_time":7.466875973},
{"learn":[0.3717279795],"iteration":39,"passed_time":0.3107940524,"remaining_time":7.459057258},
{"learn":[0.369733988],"iteration":40,"passed_time":0.3181233087,"remaining_time":7.440981781},
{"learn":[0.367475363],"iteration":41,"passed_time":0.3250593697,"remaining_time":7.414449432},
{"learn":[0.3656616889],"iteration":42,"passed_time":0.3325828017,"remaining_time":7.401900959},
{"learn":[0.363774862],"iteration":43,"passed_time":0.3408406975,"remaining_time":7.405538792},
{"learn":[0.3621629293],"iteration":44,"passed_time":0.3507326865,"remaining_time":7.443327014},
{"learn":[0.3609655018],"iteration":45,"passed_time":0.3583568995,"remaining_time":7.432010481},
{"learn":[0.35929857],"iteration":46,"passed_time":0.3672421046,"remaining_time":7.446419696},
{"learn":[0.3576602416],"iteration":47,"passed_time":0.3772175198,"remaining_time":7.481480809},
{"learn":[0.3559832306],"iteration":48,"passed_time":0.3841402359,"remaining_time":7.455456416},
{"learn":[0.3546936025],"iteration":49,"passed_time":0.3910572412,"remaining_time":7.430087583},
{"learn":[0.3532100751],"iteration":50,"passed_time":0.3984488375,"remaining_time":7.414273466},
{"learn":[0.3519845307],"iteration":51,"passed_time":0.406635221,"remaining_time":7.413272875},
{"learn":[0.350655274],"iteration":52,"passed_time":0.4151236298,"remaining_time":7.417397687},
{"learn":[0.3495988553],"iteration":53,"passed_time":0.4240469833,"remaining_time":7.42867493},
{"learn":[0.3484498971],"iteration":54,"passed_time":0.4312583136,"remaining_time":7.409801934},
{"learn":[0.3475096262],"iteration":55,"passed_time":0.4394012925,"remaining_time":7.407050359},
{"learn":[0.3465012717],"iteration":56,"passed_time":0.4471766653,"remaining_time":7.398027989},
{"learn":[0.3454787098],"iteration":57,"passed_time":0.4545886283,"remaining_time":7.383146342},
{"learn":[0.3447991511],"iteration":58,"passed_time":0.4629893275,"remaining_time":7.38428741},
{"learn":[0.3437894018],"iteration":59,"passed_time":0.4703801892,"remaining_time":7.369289631},
{"learn":[0.3429205712],"iteration":60,"passed_time":0.4791631949,"remaining_time":7.375971148},
{"learn":[0.3424267598],"iteration":61,"passed_time":0.4872397034,"remaining_time":7.37146519},
{"learn":[0.3415863029],"iteration":62,"passed_time":0.4961276912,"remaining_time":7.378915026},
{"learn":[0.3409216521],"iteration":63,"passed_time":0.5030036509,"remaining_time":7.356428395},
{"learn":[0.3402466344],"iteration":64,"passed_time":0.5116260309,"remaining_time":7.359543675},
{"learn":[0.3394408802],"iteration":65,"passed_time":0.5204608079,"remaining_time":7.365309009},
{"learn":[0.338789258],"iteration":66,"passed_time":0.5288138541,"remaining_time":7.363930238},
{"learn":[0.3380847822],"iteration":67,"passed_time":0.5364663604,"remaining_time":7.352744822},
{"learn":[0.3375472197],"iteration":68,"passed_time":0.5445063461,"remaining_time":7.346889974},
{"learn":[0.3368626527],"iteration":69,"passed_time":0.551545631,"remaining_time":7.327677668},
{"learn":[0.3365394335],"iteration":70,"passed_time":0.5584619579,"remaining_time":7.307199421},
{"learn":[0.3360915411],"iteration":71,"passed_time":0.5658705973,"remaining_time":7.293443254},
{"learn":[0.3354642152],"iteration":72,"passed_time":0.5725788066,"remaining_time":7.270966489},
{"learn":[0.3349886341],"iteration":73,"passed_time":0.5793585593,"remaining_time":7.249811161},
{"learn":[0.3345513873],"iteration":74,"passed_time":0.5874474388,"remaining_time":7.245185078},
{"learn":[0.3340627992],"iteration":75,"passed_time":0.5958505102,"remaining_time":7.244287782},
{"learn":[0.3336712347],"iteration":76,"passed_time":0.6049536691,"remaining_time":7.251587489},
{"learn":[0.3332486872],"iteration":77,"passed_time":0.6126787915,"remaining_time":7.24217751},
{"learn":[0.3327254022],"iteration":78,"passed_time":0.6216053025,"remaining_time":7.246816249},
{"learn":[0.3321868265],"iteration":79,"passed_time":0.6289709798,"remaining_time":7.233166268},
{"learn":[0.331740828],"iteration":80,"passed_time":0.6357833543,"remaining_time":7.213393859},
{"learn":[0.331347385],"iteration":81,"passed_time":0.6424547111,"remaining_time":7.192358839},
{"learn":[0.3310763773],"iteration":82,"passed_time":0.6485401067,"remaining_time":7.165196119},
{"learn":[0.3309675688],"iteration":83,"passed_time":0.6528792975,"remaining_time":7.119493291},
{"learn":[0.3305691063],"iteration":84,"passed_time":0.6599790007,"remaining_time":7.104479831},
{"learn":[0.3301396757],"iteration":85,"passed_time":0.666719781,"remaining_time":7.085835812},
{"learn":[0.3296962764],"iteration":86,"passed_time":0.6739728297,"remaining_time":7.072841305},
{"learn":[0.3293997336],"iteration":87,"passed_time":0.6820972019,"remaining_time":7.069007365},
{"learn":[0.3291266928],"iteration":88,"passed_time":0.6902529857,"remaining_time":7.065398539},
{"learn":[0.3288498637],"iteration":89,"passed_time":0.6972772274,"remaining_time":7.050247521},
{"learn":[0.3285258739],"iteration":90,"passed_time":0.7052481417,"remaining_time":7.044731437},
{"learn":[0.3282621904],"iteration":91,"passed_time":0.7121869944,"remaining_time":7.028975988},
{"learn":[0.3279941369],"iteration":92,"passed_time":0.7207309771,"remaining_time":7.029064476},
{"learn":[0.3277095603],"iteration":93,"passed_time":0.7284641228,"remaining_time":7.021154205},
{"learn":[0.3275048542],"iteration":94,"passed_time":0.7364273199,"remaining_time":7.015439205},
{"learn":[0.3272472058],"iteration":95,"passed_time":0.7456213809,"remaining_time":7.021268004},
{"learn":[0.3270137642],"iteration":96,"passed_time":0.7532419161,"remaining_time":7.012138663},
{"learn":[0.3267225973],"iteration":97,"passed_time":0.7648512669,"remaining_time":7.039753498},
{"learn":[0.3265289007],"iteration":98,"passed_time":0.7754768959,"remaining_time":7.057623063},
{"learn":[0.3263060305],"iteration":99,"passed_time":0.7860983107,"remaining_time":7.074884796},
{"learn":[0.3260355666],"iteration":100,"passed_time":0.7972757553,"remaining_time":7.096543604},
{"learn":[0.3259008423],"iteration":101,"passed_time":0.8056476419,"remaining_time":7.092858652},
{"learn":[0.3256136324],"iteration":102,"passed_time":0.8152349068,"remaining_time":7.099667101},
{"learn":[0.3253776081],"iteration":103,"passed_time":0.8246977773,"remaining_time":7.105088543},
{"learn":[0.3252506277],"iteration":104,"passed_time":0.8342568959,"remaining_time":7.111046875},
{"learn":[0.3251119449],"iteration":105,"passed_time":0.8436860764,"remaining_time":7.115616531},
{"learn":[0.3248712375],"iteration":106,"passed_time":0.8531536301,"remaining_time":7.120244782},
{"learn":[0.3246660715],"iteration":107,"passed_time":0.8636698562,"remaining_time":7.133273257},
{"learn":[0.3245361214],"iteration":108,"passed_time":0.8727356754,"remaining_time":7.134013641},
{"learn":[0.3243999925],"iteration":109,"passed_time":0.8831496329,"remaining_time":7.145483394},
{"learn":[0.3241857816],"iteration":110,"passed_time":0.8934062004,"remaining_time":7.155298307},
{"learn":[0.3239973456],"iteration":111,"passed_time":0.902794833,"remaining_time":7.157873319},
{"learn":[0.3238488398],"iteration":112,"passed_time":0.9106043419,"remaining_time":7.147841162},
{"learn":[0.323758733],"iteration":113,"passed_time":0.9205798319,"remaining_time":7.154681851},
{"learn":[0.3235515675],"iteration":114,"passed_time":0.931075347,"remaining_time":7.165232018},
{"learn":[0.3234114358],"iteration":115,"passed_time":0.9408181962,"remaining_time":7.169683495},
{"learn":[0.3232141114],"iteration":116,"passed_time":0.9501868474,"remaining_time":7.171068259},
{"learn":[0.3230632289],"iteration":117,"passed_time":0.9608961545,"remaining_time":7.182291595},
{"learn":[0.3229364744],"iteration":118,"passed_time":0.9705638958,"remaining_time":7.185435229},
{"learn":[0.3227802988],"iteration":119,"passed_time":0.9810747929,"remaining_time":7.194548481},
{"learn":[0.3226650374],"iteration":120,"passed_time":0.9918756553,"remaining_time":7.20544381},
{"learn":[0.3224963452],"iteration":121,"passed_time":1.00303256,"remaining_time":7.218545797},
{"learn":[0.3223805135],"iteration":122,"passed_time":1.013432358,"remaining_time":7.225855108},
{"learn":[0.3222797441],"iteration":123,"passed_time":1.02171847,"remaining_time":7.217946612},
{"learn":[0.3221307415],"iteration":124,"passed_time":1.037280686,"remaining_time":7.260964803},
{"learn":[0.3220088584],"iteration":125,"passed_time":1.050020631,"remaining_time":7.283476443},
{"learn":[0.3218057921],"iteration":126,"passed_time":1.069056634,"remaining_time":7.348712135},
{"learn":[0.3216792959],"iteration":127,"passed_time":1.079068168,"remaining_time":7.351151896},
{"learn":[0.3215634949],"iteration":128,"passed_time":1.088206698,"remaining_time":7.347504142},
{"learn":[0.3215377206],"iteration":129,"passed_time":1.105000775,"remaining_time":7.395005186},
{"learn":[0.3214781357],"iteration":130,"passed_time":1.113210391,"remaining_time":7.384578854},
{"learn":[0.3213067553],"iteration":131,"passed_time":1.135481411,"remaining_time":7.466650487},
{"learn":[0.3212317673],"iteration":132,"passed_time":1.147554102,"remaining_time":7.480672227},
{"learn":[0.3211400508],"iteration":133,"passed_time":1.156624398,"remaining_time":7.474900963},
{"learn":[0.3210242355],"iteration":134,"passed_time":1.165819163,"remaining_time":7.469878344},
{"learn":[0.3209070228],"iteration":135,"passed_time":1.174043145,"remaining_time":7.458627036},
{"learn":[0.3208350632],"iteration":136,"passed_time":1.190872767,"remaining_time":7.501629185},
{"learn":[0.3207109638],"iteration":137,"passed_time":1.201122008,"remaining_time":7.502660659},
{"learn":[0.3206080725],"iteration":138,"passed_time":1.20946782,"remaining_time":7.491739516},
{"learn":[0.3205387948],"iteration":139,"passed_time":1.218665103,"remaining_time":7.486085635},
{"learn":[0.3204529134],"iteration":140,"passed_time":1.227112655,"remaining_time":7.475813978},
{"learn":[0.3203911149],"iteration":141,"passed_time":1.234322728,"remaining_time":7.458090848},
{"learn":[0.320267403],"iteration":142,"passed_time":1.241890421,"remaining_time":7.442657977},
{"learn":[0.3201562434],"iteration":143,"passed_time":1.251218573,"remaining_time":7.437799293},
{"learn":[0.3200791972],"iteration":144,"passed_time":1.260121604,"remaining_time":7.430372217},
{"learn":[0.3200360283],"iteration":145,"passed_time":1.268011632,"remaining_time":7.416999543},
{"learn":[0.3199570097],"iteration":146,"passed_time":1.278815801,"remaining_time":7.420611416},
{"learn":[0.3198666888],"iteration":147,"passed_time":1.289807248,"remaining_time":7.425106588},
{"learn":[0.3197380498],"iteration":148,"passed_time":1.299300764,"remaining_time":7.420838592},
{"learn":[0.3196661069],"iteration":149,"passed_time":1.308882092,"remaining_time":7.416998523},
{"learn":[0.3195788253],"iteration":150,"passed_time":1.319292575,"remaining_time":7.417744344},
{"learn":[0.3194876102],"iteration":151,"passed_time":1.329975266,"remaining_time":7.419862009},
{"learn":[0.3194280833],"iteration":152,"passed_time":1.338594095,"remaining_time":7.410386921},
{"learn":[0.3193148034],"iteration":153,"passed_time":1.348286207,"remaining_time":7.406819035},
{"learn":[0.3192077431],"iteration":154,"passed_time":1.35837741,"remaining_time":7.405347814},
{"learn":[0.3190899442],"iteration":155,"passed_time":1.36836692,"remaining_time":7.403215899},
{"learn":[0.3190013345],"iteration":156,"passed_time":1.375365357,"remaining_time":7.38492354},
{"learn":[0.3189584754],"iteration":157,"passed_time":1.383918566,"remaining_time":7.375059698},
{"learn":[0.3188479255],"iteration":158,"passed_time":1.392663418,"remaining_time":7.366226003},
{"learn":[0.3187719515],"iteration":159,"passed_time":1.401634736,"remaining_time":7.358582366},
{"learn":[0.3186853193],"iteration":160,"passed_time":1.413399048,"remaining_time":7.365477026},
{"learn":[0.318596178],"iteration":161,"passed_time":1.423871065,"remaining_time":7.365456499},
{"learn":[0.3184936614],"iteration":162,"passed_time":1.433780196,"remaining_time":7.362417325},
{"learn":[0.3183904378],"iteration":163,"passed_time":1.442977342,"remaining_time":7.355664988},
{"learn":[0.3182878927],"iteration":164,"passed_time":1.452744318,"remaining_time":7.351766698},
{"learn":[0.3182364124],"iteration":165,"passed_time":1.461950429,"remaining_time":7.344979866},
{"learn":[0.3180950744],"iteration":166,"passed_time":1.47103265,"remaining_time":7.337546091},
{"learn":[0.3180309787],"iteration":167,"passed_time":1.479940177,"remaining_time":7.329227545},
{"learn":[0.3178451311],"iteration":168,"passed_time":1.490823926,"remaining_time":7.330619421},
{"learn":[0.3177642151],"iteration":169,"passed_time":1.50263405,"remaining_time":7.336389776},
{"learn":[0.3177400257],"iteration":170,"passed_time":1.510953695,"remaining_time":7.325032824},
{"learn":[0.3176555782],"iteration":171,"passed_time":1.520800723,"remaining_time":7.321063944},
{"learn":[0.3175719111],"iteration":172,"passed_time":1.529375274,"remaining_time":7.310944227},
{"learn":[0.3174414116],"iteration":173,"passed_time":1.537366721,"remaining_time":7.298074203},
{"learn":[0.3173459634],"iteration":174,"passed_time":1.545777088,"remaining_time":7.287234845},
{"learn":[0.3173213902],"iteration":175,"passed_time":1.554589235,"remaining_time":7.278304145},
{"learn":[0.3172111544],"iteration":176,"passed_time":1.564660481,"remaining_time":7.275229243},
{"learn":[0.3171233311],"iteration":177,"passed_time":1.574278894,"remaining_time":7.269984555},
{"learn":[0.3170320308],"iteration":178,"passed_time":1.583973216,"remaining_time":7.265039166},
{"learn":[0.3169244367],"iteration":179,"passed_time":1.594472596,"remaining_time":7.263708491},
{"learn":[0.3169049877],"iteration":180,"passed_time":1.602379251,"remaining_time":7.250544787},
{"learn":[0.3168063286],"iteration":181,"passed_time":1.612844456,"remaining_time":7.24893827},
{"learn":[0.3167084083],"iteration":182,"passed_time":1.622435599,"remaining_time":7.243332699},
{"learn":[0.3166479813],"iteration":183,"passed_time":1.631365628,"remaining_time":7.234751917},
{"learn":[0.3165610551],"iteration":184,"passed_time":1.639888759,"remaining_time":7.224374804},
{"learn":[0.3165534306],"iteration":185,"passed_time":1.646679603,"remaining_time":7.206436541},
{"learn":[0.3164821997],"iteration":186,"passed_time":1.654567023,"remaining_time":7.193384971},
{"learn":[0.3164417305],"iteration":187,"passed_time":1.663951417,"remaining_time":7.186853991},
{"learn":[0.3163635875],"iteration":188,"passed_time":1.674706082,"remaining_time":7.18617266},
{"learn":[0.3163049908],"iteration":189,"passed_time":1.684826341,"remaining_time":7.182680718},
{"learn":[0.31617696],"iteration":190,"passed_time":1.696314988,"remaining_time":7.184915314},
{"learn":[0.3161665284],"iteration":191,"passed_time":1.70557765,"remaining_time":7.177639278},
{"learn":[0.3161188261],"iteration":192,"passed_time":1.714498452,"remaining_time":7.168913216},
{"learn":[0.3160450064],"iteration":193,"passed_time":1.723946215,"remaining_time":7.162374481},
{"learn":[0.3159720977],"iteration":194,"passed_time":1.736344245,"remaining_time":7.167985216},
{"learn":[0.3159202641],"iteration":195,"passed_time":1.745602516,"remaining_time":7.160532771},
{"learn":[0.3158541294],"iteration":196,"passed_time":1.754778494,"remaining_time":7.15272655},
{"learn":[0.3157548115],"iteration":197,"passed_time":1.762428623,"remaining_time":7.138726037},
{"learn":[0.3156815738],"iteration":198,"passed_time":1.770478687,"remaining_time":7.126399136},
{"learn":[0.3155755324],"iteration":199,"passed_time":1.781755777,"remaining_time":7.127023107},
{"learn":[0.3155473462],"iteration":200,"passed_time":1.791982628,"remaining_time":7.12335383},
{"learn":[0.3154627578],"iteration":201,"passed_time":1.803030375,"remaining_time":7.12286257},
{"learn":[0.315447458],"iteration":202,"passed_time":1.810403761,"remaining_time":7.107841368},
{"learn":[0.3153757075],"iteration":203,"passed_time":1.820487707,"remaining_time":7.10347164},
{"learn":[0.315363194],"iteration":204,"passed_time":1.827706861,"remaining_time":7.087936363},
{"learn":[0.3152966492],"iteration":205,"passed_time":1.836212373,"remaining_time":7.077439925},
{"learn":[0.3152346003],"iteration":206,"passed_time":1.843849982,"remaining_time":7.063637854},
{"learn":[0.31516966],"iteration":207,"passed_time":1.853958335,"remaining_time":7.05930289},
{"learn":[0.3151331369],"iteration":208,"passed_time":1.863359232,"remaining_time":7.052235178},
{"learn":[0.315091645],"iteration":209,"passed_time":1.872102121,"remaining_time":7.042669885},
{"learn":[0.3150350379],"iteration":210,"passed_time":1.880041607,"remaining_time":7.03010819},
{"learn":[0.3149686098],"iteration":211,"passed_time":1.88820055,"remaining_time":7.018405818},
{"learn":[0.3148995147],"iteration":212,"passed_time":1.897430862,"remaining_time":7.010695252},
{"learn":[0.3148182561],"iteration":213,"passed_time":1.906075618,"remaining_time":7.000819793},
{"learn":[0.3147434324],"iteration":214,"passed_time":1.913633061,"remaining_time":6.986985828},
{"learn":[0.3147067238],"iteration":215,"passed_time":1.923437458,"remaining_time":6.981365588},
{"learn":[0.3146766238],"iteration":216,"passed_time":1.931611863,"remaining_time":6.969825295},
{"learn":[0.3145746536],"iteration":217,"passed_time":1.948617143,"remaining_time":6.989993604},
{"learn":[0.314525165],"iteration":218,"passed_time":1.960465801,"remaining_time":6.991432834},
{"learn":[0.3144937917],"iteration":219,"passed_time":1.973952226,"remaining_time":6.998557893},
{"learn":[0.3144460653],"iteration":220,"passed_time":1.982534193,"remaining_time":6.988208761},
{"learn":[0.3144033556],"iteration":221,"passed_time":1.992239495,"remaining_time":6.981812283},
{"learn":[0.3143553669],"iteration":222,"passed_time":2.000259905,"remaining_time":6.969515453},
{"learn":[0.3143330751],"iteration":223,"passed_time":2.009355865,"remaining_time":6.960982817},
{"learn":[0.3143051866],"iteration":224,"passed_time":2.016945965,"remaining_time":6.947258323},
{"learn":[0.3142205137],"iteration":225,"passed_time":2.02714973,"remaining_time":6.94253934},
{"learn":[0.3141966209],"iteration":226,"passed_time":2.036023072,"remaining_time":6.933241563},
{"learn":[0.3141388394],"iteration":227,"passed_time":2.044589085,"remaining_time":6.922906903},
{"learn":[0.3141385183],"iteration":228,"passed_time":2.053083535,"remaining_time":6.912346748},
{"learn":[0.3141170535],"iteration":229,"passed_time":2.061718045,"remaining_time":6.902273454},
{"learn":[0.3140859189],"iteration":230,"passed_time":2.072785512,"remaining_time":6.900311944},
{"learn":[0.3140316684],"iteration":231,"passed_time":2.083569705,"remaining_time":6.897334196},
{"learn":[0.3139838768],"iteration":232,"passed_time":2.092514871,"remaining_time":6.888235649},
{"learn":[0.3139004872],"iteration":233,"passed_time":2.101208506,"remaining_time":6.878315023},
{"learn":[0.3138237584],"iteration":234,"passed_time":2.110853824,"remaining_time":6.871502875},
{"learn":[0.3137695019],"iteration":235,"passed_time":2.118510871,"remaining_time":6.858230107},
{"learn":[0.3137343373],"iteration":236,"passed_time":2.127848938,"remaining_time":6.850416624},
{"learn":[0.3136907312],"iteration":237,"passed_time":2.139356876,"remaining_time":6.849537562},
{"learn":[0.3136788558],"iteration":238,"passed_time":2.150604406,"remaining_time":6.84774039},
{"learn":[0.3136150422],"iteration":239,"passed_time":2.15948327,"remaining_time":6.838363688},
{"learn":[0.3135127871],"iteration":240,"passed_time":2.167904901,"remaining_time":6.827551119},
{"learn":[0.3134249785],"iteration":241,"passed_time":2.176450816,"remaining_time":6.817147598},
{"learn":[0.3133739459],"iteration":242,"passed_time":2.185857191,"remaining_time":6.80943989},
{"learn":[0.3132893681],"iteration":243,"passed_time":2.195992006,"remaining_time":6.803975231},
{"learn":[0.3132694819],"iteration":244,"passed_time":2.206378687,"remaining_time":6.799248608},
{"learn":[0.3132323103],"iteration":245,"passed_time":2.216892056,"remaining_time":6.794864268},
{"learn":[0.3132083765],"iteration":246,"passed_time":2.22627862,"remaining_time":6.786995146},
{"learn":[0.3131783192],"iteration":247,"passed_time":2.234661194,"remaining_time":6.776069427},
{"learn":[0.3131138871],"iteration":248,"passed_time":2.245976691,"remaining_time":6.774010019},
{"learn":[0.3130624277],"iteration":249,"passed_time":2.257363655,"remaining_time":6.772090965},
{"learn":[0.313036379],"iteration":250,"passed_time":2.269287872,"remaining_time":6.771699664},
{"learn":[0.3129494753],"iteration":251,"passed_time":2.280441158,"remaining_time":6.768928517},
{"learn":[0.3128904121],"iteration":252,"passed_time":2.291673255,"remaining_time":6.766323799},
{"learn":[0.3128880346],"iteration":253,"passed_time":2.300504872,"remaining_time":6.756600923},
{"learn":[0.3128863169],"iteration":254,"passed_time":2.307213369,"remaining_time":6.740682197},
{"learn":[0.3128401911],"iteration":255,"passed_time":2.317427726,"remaining_time":6.735024329},
{"learn":[0.3127879645],"iteration":256,"passed_time":2.328040653,"remaining_time":6.730483287},
{"learn":[0.3127650649],"iteration":257,"passed_time":2.334994297,"remaining_time":6.715371195},
{"learn":[0.3126298235],"iteration":258,"passed_time":2.3459073,"remaining_time":6.711649843},
{"learn":[0.3125197499],"iteration":259,"passed_time":2.355926697,"remaining_time":6.705329831},
{"learn":[0.3124780982],"iteration":260,"passed_time":2.36559177,"remaining_time":6.697978231},
{"learn":[0.3124502189],"iteration":261,"passed_time":2.377896255,"remaining_time":6.698043651},
{"learn":[0.3124063425],"iteration":262,"passed_time":2.386270831,"remaining_time":6.687002292},
{"learn":[0.3123526789],"iteration":263,"passed_time":2.396410286,"remaining_time":6.680901403},
{"learn":[0.3123300854],"iteration":264,"passed_time":2.405037496,"remaining_time":6.670575698},
{"learn":[0.3122650835],"iteration":265,"passed_time":2.413671772,"remaining_time":6.660282257},
{"learn":[0.3121975502],"iteration":266,"passed_time":2.424677445,"remaining_time":6.656511487},
{"learn":[0.3121856928],"iteration":267,"passed_time":2.43746486,"remaining_time":6.657553274},
{"learn":[0.3120914785],"iteration":268,"passed_time":2.446149071,"remaining_time":6.647341899},
{"learn":[0.3119817846],"iteration":269,"passed_time":2.457646108,"remaining_time":6.644746884},
{"learn":[0.3118932647],"iteration":270,"passed_time":2.467978303,"remaining_time":6.638952705},
{"learn":[0.3117937199],"iteration":271,"passed_time":2.478846033,"remaining_time":6.634558501},
{"learn":[0.311753066],"iteration":272,"passed_time":2.488076033,"remaining_time":6.62575559},
{"learn":[0.3116375577],"iteration":273,"passed_time":2.496299201,"remaining_time":6.614281823},
{"learn":[0.3115994705],"iteration":274,"passed_time":2.505079691,"remaining_time":6.604301002},
{"learn":[0.3115838591],"iteration":275,"passed_time":2.519812971,"remaining_time":6.60994417},
{"learn":[0.3115327422],"iteration":276,"passed_time":2.53300474,"remaining_time":6.611416703},
{"learn":[0.3114810253],"iteration":277,"passed_time":2.54373665,"remaining_time":6.606395185},
{"learn":[0.3113974905],"iteration":278,"passed_time":2.554028814,"remaining_time":6.600196326},
{"learn":[0.3113561553],"iteration":279,"passed_time":2.568235588,"remaining_time":6.60403437},
{"learn":[0.3112906462],"iteration":280,"passed_time":2.578037529,"remaining_time":6.596473249},
{"learn":[0.3111839661],"iteration":281,"passed_time":2.590855568,"remaining_time":6.596575524},
{"learn":[0.3111304887],"iteration":282,"passed_time":2.601220475,"remaining_time":6.590371311},
{"learn":[0.3110489525],"iteration":283,"passed_time":2.615231291,"remaining_time":6.593329593},
{"learn":[0.3110049331],"iteration":284,"passed_time":2.625354479,"remaining_time":6.586415622},
{"learn":[0.3109202835],"iteration":285,"passed_time":2.636877235,"remaining_time":6.582973237},
{"learn":[0.3108331913],"iteration":286,"passed_time":2.649919431,"remaining_time":6.583249317},
{"learn":[0.3107749418],"iteration":287,"passed_time":2.659971142,"remaining_time":6.576039767},
{"learn":[0.3107269899],"iteration":288,"passed_time":2.674759387,"remaining_time":6.580463405},
{"learn":[0.3106780994],"iteration":289,"passed_time":2.684605598,"remaining_time":6.572655084},
{"learn":[0.3106531232],"iteration":290,"passed_time":2.695157653,"remaining_time":6.566552495},
{"learn":[0.3106376458],"iteration":291,"passed_time":2.705219502,"remaining_time":6.559230847},
{"learn":[0.3105943093],"iteration":292,"passed_time":2.715536104,"remaining_time":6.552505207},
{"learn":[0.3105266224],"iteration":293,"passed_time":2.723213804,"remaining_time":6.539418182},
{"learn":[0.3104515928],"iteration":294,"passed_time":2.731888052,"remaining_time":6.528749412},
{"learn":[0.310391317],"iteration":295,"passed_time":2.745002488,"remaining_time":6.528654567},
{"learn":[0.3103069171],"iteration":296,"passed_time":2.759111793,"remaining_time":6.530826903},
{"learn":[0.3102131366],"iteration":297,"passed_time":2.770468745,"remaining_time":6.526406237},
{"learn":[0.3101693042],"iteration":298,"passed_time":2.779674956,"remaining_time":6.516896804},
{"learn":[0.3101025601],"iteration":299,"passed_time":2.789160874,"remaining_time":6.508042039},
{"learn":[0.3100956656],"iteration":300,"passed_time":2.797632638,"remaining_time":6.496827953},
{"learn":[0.3100492346],"iteration":301,"passed_time":2.807514681,"remaining_time":6.488891547},
{"learn":[0.31002876],"iteration":302,"passed_time":2.81622118,"remaining_time":6.47823816},
{"learn":[0.3100105029],"iteration":303,"passed_time":2.832795717,"remaining_time":6.485611246},
{"learn":[0.3099827766],"iteration":304,"passed_time":2.840897789,"remaining_time":6.473521191},
{"learn":[0.3099357397],"iteration":305,"passed_time":2.850040109,"remaining_time":6.463816457},
{"learn":[0.3098597065],"iteration":306,"passed_time":2.86185689,"remaining_time":6.460152523},
{"learn":[0.3098297187],"iteration":307,"passed_time":2.871700071,"remaining_time":6.452001459},
{"learn":[0.3098231518],"iteration":308,"passed_time":2.881063143,"remaining_time":6.442765798},
{"learn":[0.3096978989],"iteration":309,"passed_time":2.891258493,"remaining_time":6.435381807},
{"learn":[0.3096645107],"iteration":310,"passed_time":2.902370788,"remaining_time":6.430011167},
{"learn":[0.309608705],"iteration":311,"passed_time":2.912984371,"remaining_time":6.423503998},
{"learn":[0.3095901663],"iteration":312,"passed_time":2.921453373,"remaining_time":6.412263475},
{"learn":[0.3095555943],"iteration":313,"passed_time":2.932884186,"remaining_time":6.407511311},
{"learn":[0.3093855059],"iteration":314,"passed_time":2.945455272,"remaining_time":6.405196385},
{"learn":[0.3093313163],"iteration":315,"passed_time":2.955073333,"remaining_time":6.396424557},
{"learn":[0.3093053659],"iteration":316,"passed_time":2.963275571,"remaining_time":6.384596894},
{"learn":[0.3092543896],"iteration":317,"passed_time":2.972636769,"remaining_time":6.3752776},
{"learn":[0.3092143318],"iteration":318,"passed_time":2.982154976,"remaining_time":6.366293226},
{"learn":[0.3091367018],"iteration":319,"passed_time":3.00201081,"remaining_time":6.379272972},
{"learn":[0.3090813432],"iteration":320,"passed_time":3.010527144,"remaining_time":6.36806209},
{"learn":[0.3090060704],"iteration":321,"passed_time":3.022715904,"remaining_time":6.364600569},
{"learn":[0.3088856959],"iteration":322,"passed_time":3.031243662,"remaining_time":6.353411639},
{"learn":[0.308781336],"iteration":323,"passed_time":3.042813338,"remaining_time":6.348585853},
{"learn":[0.3086871315],"iteration":324,"passed_time":3.05398635,"remaining_time":6.342894727},
{"learn":[0.3086595982],"iteration":325,"passed_time":3.063423722,"remaining_time":6.33358156},
{"learn":[0.3086022685],"iteration":326,"passed_time":3.072690103,"remaining_time":6.323915717},
{"learn":[0.3085557406],"iteration":327,"passed_time":3.081150378,"remaining_time":6.312600774},
{"learn":[0.3084857871],"iteration":328,"passed_time":3.09349713,"remaining_time":6.309229709},
{"learn":[0.308405702],"iteration":329,"passed_time":3.104450373,"remaining_time":6.302974999},
{"learn":[0.3083891918],"iteration":330,"passed_time":3.114000929,"remaining_time":6.293856863},
{"learn":[0.3083419751],"iteration":331,"passed_time":3.125366889,"remaining_time":6.288388801},
{"learn":[0.3083206506],"iteration":332,"passed_time":3.133890357,"remaining_time":6.277191795},
{"learn":[0.308291825],"iteration":333,"passed_time":3.141948556,"remaining_time":6.265083049},
{"learn":[0.3082365491],"iteration":334,"passed_time":3.150570904,"remaining_time":6.254118362},
{"learn":[0.3081944771],"iteration":335,"passed_time":3.162398699,"remaining_time":6.24950219},
{"learn":[0.308123216],"iteration":336,"passed_time":3.172041288,"remaining_time":6.240544136},
{"learn":[0.3080470955],"iteration":337,"passed_time":3.182562315,"remaining_time":6.233302522},
{"learn":[0.3080105772],"iteration":338,"passed_time":3.191504974,"remaining_time":6.222963975},
{"learn":[0.3079677744],"iteration":339,"passed_time":3.20217439,"remaining_time":6.215985581},
{"learn":[0.3079268757],"iteration":340,"passed_time":3.210606696,"remaining_time":6.204662206},
{"learn":[0.3078663051],"iteration":341,"passed_time":3.220945119,"remaining_time":6.197023065},
{"learn":[0.3078354721],"iteration":342,"passed_time":3.230608716,"remaining_time":6.188075587},
{"learn":[0.3077568457],"iteration":343,"passed_time":3.240639136,"remaining_time":6.179823469},
{"learn":[0.3077378071],"iteration":344,"passed_time":3.251155884,"remaining_time":6.17248436},
{"learn":[0.3077074789],"iteration":345,"passed_time":3.263473631,"remaining_time":6.168531083},
{"learn":[0.3076390809],"iteration":346,"passed_time":3.274590581,"remaining_time":6.162269884},
{"learn":[0.3075856105],"iteration":347,"passed_time":3.291625099,"remaining_time":6.167067714},
{"learn":[0.3075612182],"iteration":348,"passed_time":3.301010016,"remaining_time":6.157471406},
{"learn":[0.3074753627],"iteration":349,"passed_time":3.312178724,"remaining_time":6.151189058},
{"learn":[0.3074094167],"iteration":350,"passed_time":3.322569065,"remaining_time":6.143439667},
{"learn":[0.3073331025],"iteration":351,"passed_time":3.332885487,"remaining_time":6.135539193},
{"learn":[0.3072364534],"iteration":352,"passed_time":3.342204417,"remaining_time":6.125796764},
{"learn":[0.307124389],"iteration":353,"passed_time":3.350382126,"remaining_time":6.113974162},
{"learn":[0.307081728],"iteration":354,"passed_time":3.358327824,"remaining_time":6.101750554},
{"learn":[0.307046747],"iteration":355,"passed_time":3.365958128,"remaining_time":6.088980435},
{"learn":[0.3070259712],"iteration":356,"passed_time":3.376574004,"remaining_time":6.081616483},
{"learn":[0.3069306115],"iteration":357,"passed_time":3.389763119,"remaining_time":6.078848946},
{"learn":[0.3069061939],"iteration":358,"passed_time":3.398044195,"remaining_time":6.067259969},
{"learn":[0.3068241194],"iteration":359,"passed_time":3.407835104,"remaining_time":6.058373518},
{"learn":[0.3067403774],"iteration":360,"passed_time":3.41901896,"remaining_time":6.051947689},
{"learn":[0.3067095612],"iteration":361,"passed_time":3.429462476,"remaining_time":6.044190773},
{"learn":[0.3067062037],"iteration":362,"passed_time":3.43587037,"remaining_time":6.029337261},
{"learn":[0.3066993303],"iteration":363,"passed_time":3.445605398,"remaining_time":6.020343497},
{"learn":[0.3065918742],"iteration":364,"passed_time":3.453225624,"remaining_time":6.007666497},
{"learn":[0.3065207093],"iteration":365,"passed_time":3.463542571,"remaining_time":5.999688497},
{"learn":[0.3064001512],"iteration":366,"passed_time":3.475149281,"remaining_time":5.993922329},
{"learn":[0.3063641166],"iteration":367,"passed_time":3.48591733,"remaining_time":5.98668411},
{"learn":[0.3063245435],"iteration":368,"passed_time":3.496209196,"remaining_time":5.978612474},
{"learn":[0.3063141053],"iteration":369,"passed_time":3.505093031,"remaining_time":5.968131377},
{"learn":[0.3062387552],"iteration":370,"passed_time":3.514647841,"remaining_time":5.958796475},
{"learn":[0.3061709862],"iteration":371,"passed_time":3.522777079,"remaining_time":5.947053778},
{"learn":[0.3060956704],"iteration":372,"passed_time":3.531891832,"remaining_time":5.936987074},
{"learn":[0.3059965268],"iteration":373,"passed_time":3.541718627,"remaining_time":5.928117275},
{"learn":[0.3059523915],"iteration":374,"passed_time":3.550524608,"remaining_time":5.917541013},
{"learn":[0.3058849284],"iteration":375,"passed_time":3.559827725,"remaining_time":5.907799203},
{"learn":[0.3058764717],"iteration":376,"passed_time":3.57168787,"remaining_time":5.90228526},
{"learn":[0.3057850193],"iteration":377,"passed_time":3.584444459,"remaining_time":5.898212839},
{"learn":[0.3056547877],"iteration":378,"passed_time":3.59422007,"remaining_time":5.889210194},
{"learn":[0.3056358787],"iteration":379,"passed_time":3.604388734,"remaining_time":5.880844777},
{"learn":[0.3056159704],"iteration":380,"passed_time":3.614360647,"remaining_time":5.872150238},
{"learn":[0.3055657132],"iteration":381,"passed_time":3.628459338,"remaining_time":5.870125316},
{"learn":[0.3055434177],"iteration":382,"passed_time":3.638123411,"remaining_time":5.860893328},
{"learn":[0.3054777327],"iteration":383,"passed_time":3.649832508,"remaining_time":5.854939648},
{"learn":[0.3054159725],"iteration":384,"passed_time":3.658736811,"remaining_time":5.844475685},
{"learn":[0.3053866136],"iteration":385,"passed_time":3.669450083,"remaining_time":5.836897283},
{"learn":[0.3052899519],"iteration":386,"passed_time":3.678842651,"remaining_time":5.827210711},
{"learn":[0.3052819782],"iteration":387,"passed_time":3.687260056,"remaining_time":5.815987512},
{"learn":[0.3051925509],"iteration":388,"passed_time":3.698427675,"remaining_time":5.809098482},
{"learn":[0.3051179204],"iteration":389,"passed_time":3.710020629,"remaining_time":5.802852778},
{"learn":[0.3051028775],"iteration":390,"passed_time":3.71991053,"remaining_time":5.793927143},
{"learn":[0.3050696492],"iteration":391,"passed_time":3.727456317,"remaining_time":5.781360818},
{"learn":[0.3049906976],"iteration":392,"passed_time":3.738154539,"remaining_time":5.773689071},
{"learn":[0.3049536669],"iteration":393,"passed_time":3.746599086,"remaining_time":5.76253565},
{"learn":[0.3049067196],"iteration":394,"passed_time":3.757475808,"remaining_time":5.755121174},
{"learn":[0.3048527427],"iteration":395,"passed_time":3.765517227,"remaining_time":5.743364659},
{"learn":[0.3047735542],"iteration":396,"passed_time":3.778918701,"remaining_time":5.739768204},
{"learn":[0.3047103486],"iteration":397,"passed_time":3.792546768,"remaining_time":5.736465212},
{"learn":[0.3046861573],"iteration":398,"passed_time":3.802778315,"remaining_time":5.727994405},
{"learn":[0.304588566],"iteration":399,"passed_time":3.81230465,"remaining_time":5.718456975},
{"learn":[0.3045549908],"iteration":400,"passed_time":3.822827728,"remaining_time":5.710408501},
{"learn":[0.3044706704],"iteration":401,"passed_time":3.834475695,"remaining_time":5.704021059},
{"learn":[0.3044302957],"iteration":402,"passed_time":3.842022002,"remaining_time":5.691531353},
{"learn":[0.3043801777],"iteration":403,"passed_time":3.854352441,"remaining_time":5.686123898},
{"learn":[0.3043573767],"iteration":404,"passed_time":3.863497053,"remaining_time":5.676001843},
{"learn":[0.3043114848],"iteration":405,"passed_time":3.874836467,"remaining_time":5.669095718},
{"learn":[0.3042439359],"iteration":406,"passed_time":3.885643111,"remaining_time":5.66139156},
{"learn":[0.3041804104],"iteration":407,"passed_time":3.895898274,"remaining_time":5.652872006},
{"learn":[0.3041485646],"iteration":408,"passed_time":3.904203237,"remaining_time":5.641525949},
{"learn":[0.3040508982],"iteration":409,"passed_time":3.913908744,"remaining_time":5.632210143},
{"learn":[0.3039545147],"iteration":410,"passed_time":3.92569742,"remaining_time":5.625877811},
{"learn":[0.3038490437],"iteration":411,"passed_time":3.934560411,"remaining_time":5.615343499},
{"learn":[0.3037363015],"iteration":412,"passed_time":3.949506838,"remaining_time":5.613463714},
{"learn":[0.3036339425],"iteration":413,"passed_time":3.962454691,"remaining_time":5.608691906},
{"learn":[0.3035475512],"iteration":414,"passed_time":3.973039013,"remaining_time":5.60054897},
{"learn":[0.3035054238],"iteration":415,"passed_time":3.982747696,"remaining_time":5.591165034},
{"learn":[0.3034931597],"iteration":416,"passed_time":3.993033322,"remaining_time":5.582586155},
{"learn":[0.3034001902],"iteration":417,"passed_time":4.001559247,"remaining_time":5.571548999},
{"learn":[0.3033799684],"iteration":418,"passed_time":4.012358188,"remaining_time":5.563675673},
{"learn":[0.3032755929],"iteration":419,"passed_time":4.021916065,"remaining_time":5.554074566},
{"learn":[0.30320641],"iteration":420,"passed_time":4.03590566,"remaining_time":5.550568592},
{"learn":[0.3031100076],"iteration":421,"passed_time":4.04442397,"remaining_time":5.539519087},
{"learn":[0.3030167123],"iteration":422,"passed_time":4.051464443,"remaining_time":5.526465683},
{"learn":[0.3029866091],"iteration":423,"passed_time":4.05809053,"remaining_time":5.512877701},
{"learn":[0.3029738808],"iteration":424,"passed_time":4.064405567,"remaining_time":5.498901649},
{"learn":[0.3029356795],"iteration":425,"passed_time":4.07119057,"remaining_time":5.485594805},
{"learn":[0.3028963193],"iteration":426,"passed_time":4.079320314,"remaining_time":5.474123044},
{"learn":[0.3028356463],"iteration":427,"passed_time":4.084570562,"remaining_time":5.458818602},
{"learn":[0.3027478387],"iteration":428,"passed_time":4.089848066,"remaining_time":5.443597309},
{"learn":[0.3026535578],"iteration":429,"passed_time":4.094294682,"remaining_time":5.427320858},
{"learn":[0.302523738],"iteration":430,"passed_time":4.099602267,"remaining_time":5.412235939},
{"learn":[0.302455795],"iteration":431,"passed_time":4.105256141,"remaining_time":5.397651593},
{"learn":[0.3024019007],"iteration":432,"passed_time":4.114553195,"remaining_time":5.387879125},
{"learn":[0.3023008028],"iteration":433,"passed_time":4.121967619,"remaining_time":5.375653622},
{"learn":[0.3022221758],"iteration":434,"passed_time":4.127692181,"remaining_time":5.361255362},
{"learn":[0.3021242916],"iteration":435,"passed_time":4.134652253,"remaining_time":5.348495116},
{"learn":[0.3020405778],"iteration":436,"passed_time":4.140000638,"remaining_time":5.333685032},
{"learn":[0.3019542018],"iteration":437,"passed_time":4.146977452,"remaining_time":5.321007598},
{"learn":[0.301849966],"iteration":438,"passed_time":4.154874769,"remaining_time":5.30953245},
{"learn":[0.301818971],"iteration":439,"passed_time":4.164305948,"remaining_time":5.300025752},
{"learn":[0.3017966613],"iteration":440,"passed_time":4.171119779,"remaining_time":5.287201715},
{"learn":[0.301728895],"iteration":441,"passed_time":4.178507548,"remaining_time":5.275129438},
{"learn":[0.3016588013],"iteration":442,"passed_time":4.184400036,"remaining_time":5.26119824},
{"learn":[0.301578266],"iteration":443,"passed_time":4.190104927,"remaining_time":5.247068332},
{"learn":[0.3015470915],"iteration":444,"passed_time":4.196521429,"remaining_time":5.233863805},
{"learn":[0.3014582795],"iteration":445,"passed_time":4.204178387,"remaining_time":5.222230552},
{"learn":[0.3013778254],"iteration":446,"passed_time":4.20963652,"remaining_time":5.207894844},
{"learn":[0.3012786177],"iteration":447,"passed_time":4.217891515,"remaining_time":5.197044903},
{"learn":[0.3012645501],"iteration":448,"passed_time":4.22648296,"remaining_time":5.186619401},
{"learn":[0.3011907391],"iteration":449,"passed_time":4.236089683,"remaining_time":5.177442946},
{"learn":[0.3011128252],"iteration":450,"passed_time":4.244132708,"remaining_time":5.166361101},
{"learn":[0.3010143159],"iteration":451,"passed_time":4.252212135,"remaining_time":5.155336836},
{"learn":[0.3009320302],"iteration":452,"passed_time":4.260115616,"remaining_time":5.144113116},
{"learn":[0.3008428228],"iteration":453,"passed_time":4.269929925,"remaining_time":5.135202069},
{"learn":[0.3007763066],"iteration":454,"passed_time":4.27787175,"remaining_time":5.124044184},
{"learn":[0.3007520187],"iteration":455,"passed_time":4.283129173,"remaining_time":5.10969796},
{"learn":[0.3006510797],"iteration":456,"passed_time":4.288252981,"remaining_time":5.095232754},
{"learn":[0.300630442],"iteration":457,"passed_time":4.296464239,"remaining_time":5.084462047},
{"learn":[0.3005540748],"iteration":458,"passed_time":4.302272136,"remaining_time":5.070869772},
{"learn":[0.3005095951],"iteration":459,"passed_time":4.312141802,"remaining_time":5.062079507},
{"learn":[0.3003900405],"iteration":460,"passed_time":4.317486603,"remaining_time":5.047994098},
{"learn":[0.3003105583],"iteration":461,"passed_time":4.324581024,"remaining_time":5.035983963},
{"learn":[0.3003007077],"iteration":462,"passed_time":4.33081824,"remaining_time":5.023000852},
{"learn":[0.3002726354],"iteration":463,"passed_time":4.337748034,"remaining_time":5.010846867},
{"learn":[0.3001575697],"iteration":464,"passed_time":4.347077214,"remaining_time":5.001475934},
{"learn":[0.3000812398],"iteration":465,"passed_time":4.354259215,"remaining_time":4.989644679},
{"learn":[0.3000422873],"iteration":466,"passed_time":4.359274941,"remaining_time":4.975360907},
{"learn":[0.3000109194],"iteration":467,"passed_time":4.36442195,"remaining_time":4.961265978},
{"learn":[0.29999191],"iteration":468,"passed_time":4.371101751,"remaining_time":4.948944626},
{"learn":[0.2999744226],"iteration":469,"passed_time":4.37664378,"remaining_time":4.935364263},
{"learn":[0.2999089422],"iteration":470,"passed_time":4.383541859,"remaining_time":4.923341069},
{"learn":[0.2998690862],"iteration":471,"passed_time":4.390046664,"remaining_time":4.910899658},
{"learn":[0.2997928945],"iteration":472,"passed_time":4.397277358,"remaining_time":4.89929211},
{"learn":[0.299705088],"iteration":473,"passed_time":4.405483118,"remaining_time":4.888785064},
{"learn":[0.2996176417],"iteration":474,"passed_time":4.413213265,"remaining_time":4.87776203},
{"learn":[0.2995580283],"iteration":475,"passed_time":4.421847933,"remaining_time":4.867748564},
{"learn":[0.2995219779],"iteration":476,"passed_time":4.430980479,"remaining_time":4.858286772},
{"learn":[0.2995131088],"iteration":477,"passed_time":4.43858759,"remaining_time":4.847160506},
{"learn":[0.2994420168],"iteration":478,"passed_time":4.446489483,"remaining_time":4.836369563},
{"learn":[0.2994038833],"iteration":479,"passed_time":4.457229581,"remaining_time":4.828665379},
{"learn":[0.2993970353],"iteration":480,"passed_time":4.464407724,"remaining_time":4.817105216},
{"learn":[0.2993835037],"iteration":481,"passed_time":4.470457031,"remaining_time":4.804350087},
{"learn":[0.2992872743],"iteration":482,"passed_time":4.479657727,"remaining_time":4.794995952},
{"learn":[0.2992499045],"iteration":483,"passed_time":4.485987159,"remaining_time":4.782581352},
{"learn":[0.2992006542],"iteration":484,"passed_time":4.49089094,"remaining_time":4.768678009},
{"learn":[0.2991038749],"iteration":485,"passed_time":4.497525411,"remaining_time":4.756642101},
{"learn":[0.2990409548],"iteration":486,"passed_time":4.504838449,"remaining_time":4.745343171},
{"learn":[0.2989591255],"iteration":487,"passed_time":4.512627339,"remaining_time":4.734559831},
{"learn":[0.2988782386],"iteration":488,"passed_time":4.522050978,"remaining_time":4.725497034},
{"learn":[0.2988078433],"iteration":489,"passed_time":4.529956481,"remaining_time":4.714852664},
{"learn":[0.2987897394],"iteration":490,"passed_time":4.536578592,"remaining_time":4.702889009},
{"learn":[0.2987840681],"iteration":491,"passed_time":4.546040534,"remaining_time":4.69387925},
{"learn":[0.2987201241],"iteration":492,"passed_time":4.550826002,"remaining_time":4.680058384},
{"learn":[0.2986536998],"iteration":493,"passed_time":4.557693184,"remaining_time":4.668406378},
{"learn":[0.2985922579],"iteration":494,"passed_time":4.564787165,"remaining_time":4.657005087},
{"learn":[0.2985125637],"iteration":495,"passed_time":4.572925928,"remaining_time":4.646682797},
{"learn":[0.2984283431],"iteration":496,"passed_time":4.580111847,"remaining_time":4.635404947},
{"learn":[0.2983666921],"iteration":497,"passed_time":4.585056498,"remaining_time":4.621884261},
{"learn":[0.2983597896],"iteration":498,"passed_time":4.593225054,"remaining_time":4.611634774},
{"learn":[0.2982940987],"iteration":499,"passed_time":4.601247414,"remaining_time":4.601247414},
{"learn":[0.2982336157],"iteration":500,"passed_time":4.605989622,"remaining_time":4.587602438},
{"learn":[0.2982124904],"iteration":501,"passed_time":4.610470837,"remaining_time":4.573734017},
{"learn":[0.2981906808],"iteration":502,"passed_time":4.620069076,"remaining_time":4.564958908},
{"learn":[0.2981383605],"iteration":503,"passed_time":4.627515111,"remaining_time":4.55406249},
{"learn":[0.2980896722],"iteration":504,"passed_time":4.633170094,"remaining_time":4.541424152},
{"learn":[0.2980330058],"iteration":505,"passed_time":4.638803943,"remaining_time":4.528792783},
{"learn":[0.2980098742],"iteration":506,"passed_time":4.644756916,"remaining_time":4.516499328},
{"learn":[0.2979745609],"iteration":507,"passed_time":4.650181063,"remaining_time":4.503718667},
{"learn":[0.2978966179],"iteration":508,"passed_time":4.656470075,"remaining_time":4.491801192},
{"learn":[0.2978266838],"iteration":509,"passed_time":4.663536642,"remaining_time":4.480652852},
{"learn":[0.2977606314],"iteration":510,"passed_time":4.670634831,"remaining_time":4.469550748},
{"learn":[0.297673512],"iteration":511,"passed_time":4.676816336,"remaining_time":4.45759057},
{"learn":[0.2976172379],"iteration":512,"passed_time":4.682785475,"remaining_time":4.445451318},
{"learn":[0.2975976891],"iteration":513,"passed_time":4.687837951,"remaining_time":4.432469347},
{"learn":[0.2975325616],"iteration":514,"passed_time":4.696113256,"remaining_time":4.42255326},
{"learn":[0.2974644586],"iteration":515,"passed_time":4.704999678,"remaining_time":4.413216752},
{"learn":[0.2973895673],"iteration":516,"passed_time":4.712120173,"remaining_time":4.402232193},
{"learn":[0.297376503],"iteration":517,"passed_time":4.71736441,"remaining_time":4.389516691},
{"learn":[0.2973172646],"iteration":518,"passed_time":4.724312778,"remaining_time":4.378409337},
{"learn":[0.2972407975],"iteration":519,"passed_time":4.733425092,"remaining_time":4.36931547},
{"learn":[0.2971589627],"iteration":520,"passed_time":4.739677885,"remaining_time":4.357592528},
{"learn":[0.2971186405],"iteration":521,"passed_time":4.745598149,"remaining_time":4.345586044},
{"learn":[0.2970462759],"iteration":522,"passed_time":4.750931889,"remaining_time":4.333067899},
{"learn":[0.2970383192],"iteration":523,"passed_time":4.756456855,"remaining_time":4.320750883},
{"learn":[0.2969339722],"iteration":524,"passed_time":4.764026671,"remaining_time":4.310309845},
{"learn":[0.2968690741],"iteration":525,"passed_time":4.771844426,"remaining_time":4.300103152},
{"learn":[0.2968560788],"iteration":526,"passed_time":4.778233941,"remaining_time":4.288623632},
{"learn":[0.2967781737],"iteration":527,"passed_time":4.783823241,"remaining_time":4.276448048},
{"learn":[0.2966853302],"iteration":528,"passed_time":4.790429739,"remaining_time":4.265203038},
{"learn":[0.2966162202],"iteration":529,"passed_time":4.798520803,"remaining_time":4.255292033},
{"learn":[0.2965567997],"iteration":530,"passed_time":4.803986412,"remaining_time":4.243068978},
{"learn":[0.2964637417],"iteration":531,"passed_time":4.810059087,"remaining_time":4.231405362},
{"learn":[0.296440345],"iteration":532,"passed_time":4.815831577,"remaining_time":4.219499712},
{"learn":[0.2963649624],"iteration":533,"passed_time":4.822800796,"remaining_time":4.208661369},
{"learn":[0.2963447478],"iteration":534,"passed_time":4.827858254,"remaining_time":4.196175866},
{"learn":[0.2962781729],"iteration":535,"passed_time":4.83384973,"remaining_time":4.184526632},
{"learn":[0.2961968161],"iteration":536,"passed_time":4.839019861,"remaining_time":4.172190308},
{"learn":[0.2961357081],"iteration":537,"passed_time":4.845666992,"remaining_time":4.161148979},
{"learn":[0.2960777374],"iteration":538,"passed_time":4.850782762,"remaining_time":4.148814199},
{"learn":[0.2960537652],"iteration":539,"passed_time":4.859087273,"remaining_time":4.139222492},
{"learn":[0.2959762063],"iteration":540,"passed_time":4.865148775,"remaining_time":4.127732509},
{"learn":[0.2959315901],"iteration":541,"passed_time":4.86980269,"remaining_time":4.115073122},
{"learn":[0.2958604933],"iteration":542,"passed_time":4.875543245,"remaining_time":4.103357759},
{"learn":[0.2957739579],"iteration":543,"passed_time":4.880957846,"remaining_time":4.091391136},
{"learn":[0.2957560887],"iteration":544,"passed_time":4.887660707,"remaining_time":4.080524077},
{"learn":[0.29570037],"iteration":545,"passed_time":4.894584894,"remaining_time":4.069856304},
{"learn":[0.2956999749],"iteration":546,"passed_time":4.898735513,"remaining_time":4.056905278},
{"learn":[0.2956412112],"iteration":547,"passed_time":4.90516509,"remaining_time":4.045866096},
{"learn":[0.2955507116],"iteration":548,"passed_time":4.910598225,"remaining_time":4.034025136},
{"learn":[0.2955176626],"iteration":549,"passed_time":4.920603042,"remaining_time":4.025947943},
{"learn":[0.2954524355],"iteration":550,"passed_time":4.927911383,"remaining_time":4.015666444},
{"learn":[0.2953349587],"iteration":551,"passed_time":4.943553348,"remaining_time":4.012159239},
{"learn":[0.295330624],"iteration":552,"passed_time":4.987188521,"remaining_time":4.031235567},
{"learn":[0.2952335794],"iteration":553,"passed_time":5.033212661,"remaining_time":4.052008749},
{"learn":[0.2951946562],"iteration":554,"passed_time":5.0945278,"remaining_time":4.084801569},
{"learn":[0.2951895418],"iteration":555,"passed_time":5.132516282,"remaining_time":4.09862811},
{"learn":[0.2951156901],"iteration":556,"passed_time":5.179237206,"remaining_time":4.119213792},
{"learn":[0.2950849701],"iteration":557,"passed_time":5.22633294,"remaining_time":4.139855124},
{"learn":[0.2949956802],"iteration":558,"passed_time":5.265985885,"remaining_time":4.154382425},
{"learn":[0.2949520618],"iteration":559,"passed_time":5.320575217,"remaining_time":4.180451956},
{"learn":[0.2948803884],"iteration":560,"passed_time":5.372101785,"remaining_time":4.203837225},
{"learn":[0.2948092257],"iteration":561,"passed_time":5.431268036,"remaining_time":4.232909964},
{"learn":[0.294797864],"iteration":562,"passed_time":5.481267237,"remaining_time":4.254553788},
{"learn":[0.2947866223],"iteration":563,"passed_time":5.538695514,"remaining_time":4.281686603},
{"learn":[0.2947600232],"iteration":564,"passed_time":5.571383285,"remaining_time":4.289472087},
{"learn":[0.2947290578],"iteration":565,"passed_time":5.611731281,"remaining_time":4.302988297},
{"learn":[0.2947247122],"iteration":566,"passed_time":5.651265781,"remaining_time":4.315693268},
{"learn":[0.2946529666],"iteration":567,"passed_time":5.69811435,"remaining_time":4.333777111},
{"learn":[0.2945904837],"iteration":568,"passed_time":5.748747179,"remaining_time":4.354499181},
{"learn":[0.2945205894],"iteration":569,"passed_time":5.791614251,"remaining_time":4.369112505},
{"learn":[0.2945151865],"iteration":570,"passed_time":5.831866516,"remaining_time":4.381559957},
{"learn":[0.2945075819],"iteration":571,"passed_time":5.878163384,"remaining_time":4.398346029},
{"learn":[0.294401233],"iteration":572,"passed_time":5.920496962,"remaining_time":4.411958469},
{"learn":[0.2943459166],"iteration":573,"passed_time":5.965164047,"remaining_time":4.427107812},
{"learn":[0.2943116804],"iteration":574,"passed_time":6.016175288,"remaining_time":4.446738257},
{"learn":[0.2942635244],"iteration":575,"passed_time":6.067176251,"remaining_time":4.466115851},
{"learn":[0.2941720636],"iteration":576,"passed_time":6.106821136,"remaining_time":4.476924334},
{"learn":[0.2940988246],"iteration":577,"passed_time":6.143677342,"remaining_time":4.485522211},
{"learn":[0.2940496345],"iteration":578,"passed_time":6.19015518,"remaining_time":4.500959121},
{"learn":[0.2939901624],"iteration":579,"passed_time":6.231734479,"remaining_time":4.512635313},
{"learn":[0.2939276299],"iteration":580,"passed_time":6.289762321,"remaining_time":4.535990383},
{"learn":[0.2938592932],"iteration":581,"passed_time":6.33386654,"remaining_time":4.549065659},
{"learn":[0.2937972016],"iteration":582,"passed_time":6.372209828,"remaining_time":4.557824182},
{"learn":[0.2937117387],"iteration":583,"passed_time":6.424584289,"remaining_time":4.576416206},
{"learn":[0.2936508252],"iteration":584,"passed_time":6.463023112,"remaining_time":4.584879643},
{"learn":[0.2936497283],"iteration":585,"passed_time":6.518857671,"remaining_time":4.605472826},
{"learn":[0.2935925355],"iteration":586,"passed_time":6.565668444,"remaining_time":4.619456673},
{"learn":[0.2935288345],"iteration":587,"passed_time":6.614172951,"remaining_time":4.634420503},
{"learn":[0.2934717138],"iteration":588,"passed_time":6.667735529,"remaining_time":4.652698306},
{"learn":[0.2933936963],"iteration":589,"passed_time":6.717479748,"remaining_time":4.668079147},
{"learn":[0.2933839434],"iteration":590,"passed_time":6.769758287,"remaining_time":4.684993468},
{"learn":[0.2933301425],"iteration":591,"passed_time":6.808400725,"remaining_time":4.692276175},
{"learn":[0.2932717787],"iteration":592,"passed_time":6.861964542,"remaining_time":4.709645141},
{"learn":[0.2932343475],"iteration":593,"passed_time":6.909090589,"remaining_time":4.722375049},
{"learn":[0.2931576847],"iteration":594,"passed_time":6.948221743,"remaining_time":4.729461859},
{"learn":[0.2931085949],"iteration":595,"passed_time":6.997648037,"remaining_time":4.743372159},
{"learn":[0.2930411294],"iteration":596,"passed_time":7.042690411,"remaining_time":4.754110947},
{"learn":[0.2930403748],"iteration":597,"passed_time":7.080321212,"remaining_time":4.759680815},
{"learn":[0.2929686179],"iteration":598,"passed_time":7.14024866,"remaining_time":4.780032909},
{"learn":[0.2929393715],"iteration":599,"passed_time":7.185821601,"remaining_time":4.790547734},
{"learn":[0.2929088101],"iteration":600,"passed_time":7.225574797,"remaining_time":4.79701222},
{"learn":[0.2928483456],"iteration":601,"passed_time":7.27970559,"remaining_time":4.812828612},
{"learn":[0.2927665031],"iteration":602,"passed_time":7.346981274,"remaining_time":4.837067273},
{"learn":[0.2927637608],"iteration":603,"passed_time":7.389348936,"remaining_time":4.844672481},
{"learn":[0.2927250459],"iteration":604,"passed_time":7.42855287,"remaining_time":4.850046915},
{"learn":[0.2926894746],"iteration":605,"passed_time":7.469307049,"remaining_time":4.856282141},
{"learn":[0.2926342115],"iteration":606,"passed_time":7.513282783,"remaining_time":4.864448325},
{"learn":[0.2925685973],"iteration":607,"passed_time":7.563907347,"remaining_time":4.876729737},
{"learn":[0.2925678622],"iteration":608,"passed_time":7.601211318,"remaining_time":4.880252259},
{"learn":[0.2924974883],"iteration":609,"passed_time":7.642079838,"remaining_time":4.885919897},
{"learn":[0.2924336477],"iteration":610,"passed_time":7.684078694,"remaining_time":4.892154848},
{"learn":[0.2923454555],"iteration":611,"passed_time":7.736618695,"remaining_time":4.90491512},
{"learn":[0.2922897502],"iteration":612,"passed_time":7.753589171,"remaining_time":4.89500654},
{"learn":[0.2922414998],"iteration":613,"passed_time":7.763525478,"remaining_time":4.880652825},
{"learn":[0.2921868839],"iteration":614,"passed_time":7.776401718,"remaining_time":4.868153921},
{"learn":[0.292118029],"iteration":615,"passed_time":7.788356207,"remaining_time":4.855079194},
{"learn":[0.2920551669],"iteration":616,"passed_time":7.801938178,"remaining_time":4.84301835},
{"learn":[0.2919587222],"iteration":617,"passed_time":7.814293711,"remaining_time":4.830194495},
{"learn":[0.291873849],"iteration":618,"passed_time":7.830266031,"remaining_time":4.819598316},
{"learn":[0.2918015179],"iteration":619,"passed_time":7.850195104,"remaining_time":4.811409902},
{"learn":[0.2917291497],"iteration":620,"passed_time":7.862541376,"remaining_time":4.798555848},
{"learn":[0.2916886831],"iteration":621,"passed_time":7.880735031,"remaining_time":4.78925698},
{"learn":[0.2916324391],"iteration":622,"passed_time":7.89436251,"remaining_time":4.777166398},
{"learn":[0.2915645447],"iteration":623,"passed_time":7.909906813,"remaining_time":4.7662259},
{"learn":[0.2915117248],"iteration":624,"passed_time":7.934824163,"remaining_time":4.760894498},
{"learn":[0.2914324737],"iteration":625,"passed_time":7.950472994,"remaining_time":4.749963099},
{"learn":[0.2914281516],"iteration":626,"passed_time":7.963213924,"remaining_time":4.737286753},
{"learn":[0.2914156642],"iteration":627,"passed_time":7.977794214,"remaining_time":4.725699757},
{"learn":[0.2913505749],"iteration":628,"passed_time":7.988732026,"remaining_time":4.71195482},
{"learn":[0.2912693383],"iteration":629,"passed_time":8.006586872,"remaining_time":4.702281179},
{"learn":[0.291219219],"iteration":630,"passed_time":8.021889707,"remaining_time":4.691089227},
{"learn":[0.2911635189],"iteration":631,"passed_time":8.034471869,"remaining_time":4.678300076},
{"learn":[0.2910690851],"iteration":632,"passed_time":8.049355796,"remaining_time":4.666846093},
{"learn":[0.2910326073],"iteration":633,"passed_time":8.060549701,"remaining_time":4.653251089},
{"learn":[0.2910182353],"iteration":634,"passed_time":8.070624442,"remaining_time":4.639020349},
{"learn":[0.2909512464],"iteration":635,"passed_time":8.082847162,"remaining_time":4.626032024},
{"learn":[0.2909024163],"iteration":636,"passed_time":8.095461776,"remaining_time":4.613269427},
{"learn":[0.2908123988],"iteration":637,"passed_time":8.111025234,"remaining_time":4.602180462},
{"learn":[0.290737301],"iteration":638,"passed_time":8.12534808,"remaining_time":4.590376615},
{"learn":[0.2906605749],"iteration":639,"passed_time":8.139421934,"remaining_time":4.578424838},
{"learn":[0.2905976143],"iteration":640,"passed_time":8.153260981,"remaining_time":4.566334933},
{"learn":[0.2905963212],"iteration":641,"passed_time":8.164507544,"remaining_time":4.552793926},
{"learn":[0.2905394948],"iteration":642,"passed_time":8.177972139,"remaining_time":4.54049153},
{"learn":[0.2904557694],"iteration":643,"passed_time":8.190204121,"remaining_time":4.527504141},
{"learn":[0.2904545389],"iteration":644,"passed_time":8.202306251,"remaining_time":4.514447627},
{"learn":[0.2904021154],"iteration":645,"passed_time":8.215980799,"remaining_time":4.502255732},
{"learn":[0.2903867574],"iteration":646,"passed_time":8.226169215,"remaining_time":4.488157238},
{"learn":[0.2903744222],"iteration":647,"passed_time":8.236116804,"remaining_time":4.473939992},
{"learn":[0.2903280343],"iteration":648,"passed_time":8.245751913,"remaining_time":4.459566905},
{"learn":[0.290314085],"iteration":649,"passed_time":8.255975817,"remaining_time":4.44552544},
{"learn":[0.2902285293],"iteration":650,"passed_time":8.264914077,"remaining_time":4.430806471},
{"learn":[0.2901753365],"iteration":651,"passed_time":8.275036528,"remaining_time":4.416737288},
{"learn":[0.2901006822],"iteration":652,"passed_time":8.28698619,"remaining_time":4.403651161},
{"learn":[0.2900564308],"iteration":653,"passed_time":8.295980342,"remaining_time":4.389004891},
{"learn":[0.289981823],"iteration":654,"passed_time":8.304546157,"remaining_time":4.374150266},
{"learn":[0.2898958517],"iteration":655,"passed_time":8.313410099,"remaining_time":4.359471149},
{"learn":[0.2898144577],"iteration":656,"passed_time":8.322311183,"remaining_time":4.344829126},
{"learn":[0.2897430458],"iteration":657,"passed_time":8.332861583,"remaining_time":4.331061795},
{"learn":[0.2897394889],"iteration":658,"passed_time":8.341965986,"remaining_time":4.316555996},
{"learn":[0.2897188903],"iteration":659,"passed_time":8.35072551,"remaining_time":4.301888899},
{"learn":[0.2896729842],"iteration":660,"passed_time":8.36141525,"remaining_time":4.288229606},
{"learn":[0.2896037648],"iteration":661,"passed_time":8.373415615,"remaining_time":4.275248456},
{"learn":[0.2895605567],"iteration":662,"passed_time":8.38259155,"remaining_time":4.260834619},
{"learn":[0.2895011777],"iteration":663,"passed_time":8.392024791,"remaining_time":4.246566762},
{"learn":[0.2894749787],"iteration":664,"passed_time":8.401161949,"remaining_time":4.23216429},
{"learn":[0.2894351834],"iteration":665,"passed_time":8.412978514,"remaining_time":4.219121357},
{"learn":[0.2893444887],"iteration":666,"passed_time":8.422674487,"remaining_time":4.205023395},
{"learn":[0.2892669113],"iteration":667,"passed_time":8.432919374,"remaining_time":4.191211425},
{"learn":[0.2892380312],"iteration":668,"passed_time":8.442670886,"remaining_time":4.177166014},
{"learn":[0.2891954031],"iteration":669,"passed_time":8.452766569,"remaining_time":4.163302937},
{"learn":[0.2891336886],"iteration":670,"passed_time":8.462597431,"remaining_time":4.149321244},
{"learn":[0.289132736],"iteration":671,"passed_time":8.471273747,"remaining_time":4.134788377},
{"learn":[0.2890816121],"iteration":672,"passed_time":8.481372289,"remaining_time":4.12096395},
{"learn":[0.2890271374],"iteration":673,"passed_time":8.490383819,"remaining_time":4.106624814},
{"learn":[0.2889612404],"iteration":674,"passed_time":8.498446975,"remaining_time":4.09184484},
{"learn":[0.2888758697],"iteration":675,"passed_time":8.508474396,"remaining_time":4.07802619},
{"learn":[0.2888216062],"iteration":676,"passed_time":8.517738513,"remaining_time":4.063854564},
{"learn":[0.2888111502],"iteration":677,"passed_time":8.526812639,"remaining_time":4.049607183},
{"learn":[0.2887385185],"iteration":678,"passed_time":8.537678814,"remaining_time":4.036222237},
{"learn":[0.2886951118],"iteration":679,"passed_time":8.547163625,"remaining_time":4.022194647},
{"learn":[0.2886571644],"iteration":680,"passed_time":8.556260271,"remaining_time":4.00799857},
{"learn":[0.2885816229],"iteration":681,"passed_time":8.565600574,"remaining_time":3.99393106},
{"learn":[0.2885170661],"iteration":682,"passed_time":8.575162179,"remaining_time":3.979980103},
{"learn":[0.2884570307],"iteration":683,"passed_time":8.584352226,"remaining_time":3.965870327},
{"learn":[0.28832347],"iteration":684,"passed_time":8.593758284,"remaining_time":3.951874247},
{"learn":[0.2882476332],"iteration":685,"passed_time":8.603583664,"remaining_time":3.938083485},
{"learn":[0.2881623072],"iteration":686,"passed_time":8.613363677,"remaining_time":3.924283597},
{"learn":[0.288107726],"iteration":687,"passed_time":8.625152641,"remaining_time":3.91140643},
{"learn":[0.288033038],"iteration":688,"passed_time":8.634912562,"remaining_time":3.897616556},
{"learn":[0.2880219024],"iteration":689,"passed_time":8.644220811,"remaining_time":3.883635437},
{"learn":[0.2879664886],"iteration":690,"passed_time":8.654207544,"remaining_time":3.869971246},
{"learn":[0.2878705399],"iteration":691,"passed_time":8.664617061,"remaining_time":3.85650586},
{"learn":[0.2878270849],"iteration":692,"passed_time":8.674599578,"remaining_time":3.84286013},
{"learn":[0.2877603168],"iteration":693,"passed_time":8.683682029,"remaining_time":3.828828099},
{"learn":[0.2877115631],"iteration":694,"passed_time":8.694153148,"remaining_time":3.815419727},
{"learn":[0.2876007885],"iteration":695,"passed_time":8.703735427,"remaining_time":3.801631566},
{"learn":[0.2875092655],"iteration":696,"passed_time":8.71321855,"remaining_time":3.787812368},
{"learn":[0.2874382847],"iteration":697,"passed_time":8.721228083,"remaining_time":3.773368024},
{"learn":[0.2873455489],"iteration":698,"passed_time":8.730646972,"remaining_time":3.759548982},
{"learn":[0.287305252],"iteration":699,"passed_time":8.739837953,"remaining_time":3.745644837},
{"learn":[0.2872479163],"iteration":700,"passed_time":8.748865044,"remaining_time":3.731684234},
{"learn":[0.2871610297],"iteration":701,"passed_time":8.757376375,"remaining_time":3.717518746},
{"learn":[0.2870956187],"iteration":702,"passed_time":8.766333329,"remaining_time":3.703557608},
{"learn":[0.2870502266],"iteration":703,"passed_time":8.775567056,"remaining_time":3.689727058},
{"learn":[0.2870221321],"iteration":704,"passed_time":8.784283895,"remaining_time":3.675693261},
{"learn":[0.2869733275],"iteration":705,"passed_time":8.794359322,"remaining_time":3.662240284},
{"learn":[0.2869344059],"iteration":706,"passed_time":8.803468506,"remaining_time":3.648396425},
{"learn":[0.2868736193],"iteration":707,"passed_time":8.812728998,"remaining_time":3.634628344},
{"learn":[0.2868030809],"iteration":708,"passed_time":8.823103933,"remaining_time":3.621330387},
{"learn":[0.2867598824],"iteration":709,"passed_time":8.833578107,"remaining_time":3.608081199},
{"learn":[0.2867206619],"iteration":710,"passed_time":8.844257545,"remaining_time":3.594923249},
{"learn":[0.286673664],"iteration":711,"passed_time":8.854871784,"remaining_time":3.58174589},
{"learn":[0.2866196124],"iteration":712,"passed_time":8.865141,"remaining_time":3.56843684},
{"learn":[0.2865826647],"iteration":713,"passed_time":8.874129007,"remaining_time":3.554623104},
{"learn":[0.2865639477],"iteration":714,"passed_time":8.883934883,"remaining_time":3.54114887},
{"learn":[0.2865099678],"iteration":715,"passed_time":8.893245201,"remaining_time":3.52748832},
{"learn":[0.2864732439],"iteration":716,"passed_time":8.902326956,"remaining_time":3.513749691},
{"learn":[0.2864082169],"iteration":717,"passed_time":8.911360716,"remaining_time":3.500005184},
{"learn":[0.286349879],"iteration":718,"passed_time":8.919478156,"remaining_time":3.485915663},
{"learn":[0.2863244109],"iteration":719,"passed_time":8.927839879,"remaining_time":3.471937731},
{"learn":[0.2862687501],"iteration":720,"passed_time":8.937060263,"remaining_time":3.458307647},
{"learn":[0.2862427877],"iteration":721,"passed_time":8.945974172,"remaining_time":3.444571773},
{"learn":[0.286158076],"iteration":722,"passed_time":8.954322361,"remaining_time":3.430632495},
{"learn":[0.2860730359],"iteration":723,"passed_time":8.962333772,"remaining_time":3.416580278},
{"learn":[0.2860060446],"iteration":724,"passed_time":8.970227297,"remaining_time":3.402500009},
{"learn":[0.2859221285],"iteration":725,"passed_time":8.978767306,"remaining_time":3.388680774},
{"learn":[0.2858667692],"iteration":726,"passed_time":8.988195314,"remaining_time":3.37520952},
{"learn":[0.2858184215],"iteration":727,"passed_time":8.996680567,"remaining_time":3.361397135},
{"learn":[0.2857799531],"iteration":728,"passed_time":9.007177585,"remaining_time":3.348347223},
{"learn":[0.2857091786],"iteration":729,"passed_time":9.015310234,"remaining_time":3.334429813},
{"learn":[0.2855933314],"iteration":730,"passed_time":9.023867996,"remaining_time":3.320684666},
{"learn":[0.2855331748],"iteration":731,"passed_time":9.031754062,"remaining_time":3.306707771},
{"learn":[0.2854469617],"iteration":732,"passed_time":9.04101923,"remaining_time":3.293249842},
{"learn":[0.285390605],"iteration":733,"passed_time":9.04919991,"remaining_time":3.279410322},
{"learn":[0.2853097802],"iteration":734,"passed_time":9.059552871,"remaining_time":3.266369403},
{"learn":[0.2853094521],"iteration":735,"passed_time":9.067019459,"remaining_time":3.252300458},
{"learn":[0.2852622016],"iteration":736,"passed_time":9.075951674,"remaining_time":3.238772443},
{"learn":[0.2852172039],"iteration":737,"passed_time":9.086609926,"remaining_time":3.225869649},
{"learn":[0.2851376863],"iteration":738,"passed_time":9.096941836,"remaining_time":3.212857672},
{"learn":[0.2850980008],"iteration":739,"passed_time":9.10694066,"remaining_time":3.199735908},
{"learn":[0.2850741478],"iteration":740,"passed_time":9.118360571,"remaining_time":3.187119282},
{"learn":[0.2850335375],"iteration":741,"passed_time":9.126288569,"remaining_time":3.173291713},
{"learn":[0.284958142],"iteration":742,"passed_time":9.134213589,"remaining_time":3.159478994},
{"learn":[0.2848847808],"iteration":743,"passed_time":9.142169796,"remaining_time":3.145692833},
{"learn":[0.2848368954],"iteration":744,"passed_time":9.153400883,"remaining_time":3.133043255},
{"learn":[0.2847936389],"iteration":745,"passed_time":9.162047214,"remaining_time":3.119517416},
{"learn":[0.2847649338],"iteration":746,"passed_time":9.170944334,"remaining_time":3.10608958},
{"learn":[0.2847098272],"iteration":747,"passed_time":9.178934343,"remaining_time":3.092368255},
{"learn":[0.284669364],"iteration":748,"passed_time":9.186716133,"remaining_time":3.078592456},
{"learn":[0.2846221332],"iteration":749,"passed_time":9.196347874,"remaining_time":3.065449291},
{"learn":[0.2845823047],"iteration":750,"passed_time":9.206299268,"remaining_time":3.052421462},
{"learn":[0.2845238808],"iteration":751,"passed_time":9.216354087,"remaining_time":3.039435922},
{"learn":[0.2845158266],"iteration":752,"passed_time":9.225779685,"remaining_time":3.026251769},
{"learn":[0.2844447736],"iteration":753,"passed_time":9.234826979,"remaining_time":3.01295416},
{"learn":[0.2844001108],"iteration":754,"passed_time":9.244705895,"remaining_time":2.999937674},
{"learn":[0.2843592386],"iteration":755,"passed_time":9.25545788,"remaining_time":2.987211274},
{"learn":[0.284246294],"iteration":756,"passed_time":9.268409306,"remaining_time":2.975196118},
{"learn":[0.2841943832],"iteration":757,"passed_time":9.2777013,"remaining_time":2.962010178},
{"learn":[0.284108933],"iteration":758,"passed_time":9.289816361,"remaining_time":2.949730887},
{"learn":[0.284049121],"iteration":759,"passed_time":9.298621414,"remaining_time":2.936406762},
{"learn":[0.2839763493],"iteration":760,"passed_time":9.306876281,"remaining_time":2.922921723},
{"learn":[0.2839323545],"iteration":761,"passed_time":9.31527936,"remaining_time":2.909496703},
{"learn":[0.2838759056],"iteration":762,"passed_time":9.323739013,"remaining_time":2.896102419},
{"learn":[0.2838195954],"iteration":763,"passed_time":9.332943815,"remaining_time":2.882951231},
{"learn":[0.2837789646],"iteration":764,"passed_time":9.342255784,"remaining_time":2.86984328},
{"learn":[0.2837595051],"iteration":765,"passed_time":9.351837638,"remaining_time":2.856827686},
{"learn":[0.283716077],"iteration":766,"passed_time":9.360230892,"remaining_time":2.843459971},
{"learn":[0.2836297323],"iteration":767,"passed_time":9.369474646,"remaining_time":2.830362133},
{"learn":[0.2835563679],"iteration":768,"passed_time":9.378600031,"remaining_time":2.817238761},
{"learn":[0.2835216276],"iteration":769,"passed_time":9.387687976,"remaining_time":2.80411459},
{"learn":[0.2834874619],"iteration":770,"passed_time":9.396278277,"remaining_time":2.790853081},
{"learn":[0.2834274697],"iteration":771,"passed_time":9.405307998,"remaining_time":2.77773345},
{"learn":[0.2833757089],"iteration":772,"passed_time":9.414239198,"remaining_time":2.76459547},
{"learn":[0.2832945015],"iteration":773,"passed_time":9.423208084,"remaining_time":2.751479363},
{"learn":[0.2832307715],"iteration":774,"passed_time":9.432306804,"remaining_time":2.738411653},
{"learn":[0.2831113277],"iteration":775,"passed_time":9.44376795,"remaining_time":2.726036109},
{"learn":[0.2830784526],"iteration":776,"passed_time":9.453801873,"remaining_time":2.713253305},
{"learn":[0.2830119025],"iteration":777,"passed_time":9.462473718,"remaining_time":2.700088902},
{"learn":[0.2829888284],"iteration":778,"passed_time":9.470948329,"remaining_time":2.686880078},
{"learn":[0.282949611],"iteration":779,"passed_time":9.480859973,"remaining_time":2.67408871},
{"learn":[0.2828730934],"iteration":780,"passed_time":9.490025064,"remaining_time":2.661095377},
{"learn":[0.282803112],"iteration":781,"passed_time":9.499894926,"remaining_time":2.648308304},
{"learn":[0.2827794796],"iteration":782,"passed_time":9.508424657,"remaining_time":2.63515728},
{"learn":[0.2827521276],"iteration":783,"passed_time":9.517895536,"remaining_time":2.622277341},
{"learn":[0.2827017835],"iteration":784,"passed_time":9.525980526,"remaining_time":2.609026513},
{"learn":[0.2826524437],"iteration":785,"passed_time":9.535977139,"remaining_time":2.596309297},
{"learn":[0.2825911305],"iteration":786,"passed_time":9.546419756,"remaining_time":2.583719705},
{"learn":[0.2825060077],"iteration":787,"passed_time":9.556138247,"remaining_time":2.570940747},
{"learn":[0.2824749027],"iteration":788,"passed_time":9.564865859,"remaining_time":2.557904558},
{"learn":[0.282449635],"iteration":789,"passed_time":9.575190712,"remaining_time":2.54530386},
{"learn":[0.2824454051],"iteration":790,"passed_time":9.584694252,"remaining_time":2.532491907},
{"learn":[0.282404871],"iteration":791,"passed_time":9.594943293,"remaining_time":2.519884097},
{"learn":[0.2823616653],"iteration":792,"passed_time":9.605556662,"remaining_time":2.507377338},
{"learn":[0.2823118934],"iteration":793,"passed_time":9.615418138,"remaining_time":2.494680273},
{"learn":[0.2822653851],"iteration":794,"passed_time":9.627473799,"remaining_time":2.482556137},
{"learn":[0.2822496589],"iteration":795,"passed_time":9.637189523,"remaining_time":2.469832491},
{"learn":[0.2822178795],"iteration":796,"passed_time":9.646434726,"remaining_time":2.456996549},
{"learn":[0.282182153],"iteration":797,"passed_time":9.656271223,"remaining_time":2.444319282},
{"learn":[0.282135168],"iteration":798,"passed_time":9.668289037,"remaining_time":2.432197868},
{"learn":[0.2820957956],"iteration":799,"passed_time":9.677367622,"remaining_time":2.419341906},
{"learn":[0.2820512124],"iteration":800,"passed_time":9.689547579,"remaining_time":2.407265878},
{"learn":[0.2820187487],"iteration":801,"passed_time":9.699747202,"remaining_time":2.394700681},
{"learn":[0.2819783455],"iteration":802,"passed_time":9.712061604,"remaining_time":2.382660194},
{"learn":[0.2819598971],"iteration":803,"passed_time":9.721010699,"remaining_time":2.369798628},
{"learn":[0.2819283889],"iteration":804,"passed_time":9.73366041,"remaining_time":2.357843205},
{"learn":[0.2818948139],"iteration":805,"passed_time":9.745134424,"remaining_time":2.345603075},
{"learn":[0.2818679975],"iteration":806,"passed_time":9.754866017,"remaining_time":2.33294813},
{"learn":[0.2818425526],"iteration":807,"passed_time":9.765364261,"remaining_time":2.320482597},
{"learn":[0.2817671414],"iteration":808,"passed_time":9.775714507,"remaining_time":2.307986985},
{"learn":[0.2816920083],"iteration":809,"passed_time":9.787861663,"remaining_time":2.295918168},
{"learn":[0.2816291171],"iteration":810,"passed_time":9.799438574,"remaining_time":2.283716264},
{"learn":[0.2815976979],"iteration":811,"passed_time":9.809734788,"remaining_time":2.271219384},
{"learn":[0.2815571667],"iteration":812,"passed_time":9.81911421,"remaining_time":2.258517045},
{"learn":[0.2815103304],"iteration":813,"passed_time":9.830840444,"remaining_time":2.246359119},
{"learn":[0.2814618943],"iteration":814,"passed_time":9.843075947,"remaining_time":2.234317853},
{"learn":[0.2814524065],"iteration":815,"passed_time":9.852428538,"remaining_time":2.221626043},
{"learn":[0.2814081182],"iteration":816,"passed_time":9.862128863,"remaining_time":2.209020296},
{"learn":[0.2813437368],"iteration":817,"passed_time":9.873129782,"remaining_time":2.196711027},
{"learn":[0.2813059942],"iteration":818,"passed_time":9.883278893,"remaining_time":2.184216703},
{"learn":[0.2812505039],"iteration":819,"passed_time":9.896131322,"remaining_time":2.17232151},
{"learn":[0.2811728155],"iteration":820,"passed_time":9.907314187,"remaining_time":2.160059975},
{"learn":[0.2811119431],"iteration":821,"passed_time":9.917905327,"remaining_time":2.14767293},
{"learn":[0.2810929279],"iteration":822,"passed_time":9.927972124,"remaining_time":2.13517748},
{"learn":[0.2810274745],"iteration":823,"passed_time":9.937750738,"remaining_time":2.122626371},
{"learn":[0.2809111244],"iteration":824,"passed_time":9.947414349,"remaining_time":2.110057589},
{"learn":[0.2808367536],"iteration":825,"passed_time":9.95790923,"remaining_time":2.097670952},
{"learn":[0.2808158682],"iteration":826,"passed_time":9.972463619,"remaining_time":2.086138097},
{"learn":[0.2807514423],"iteration":827,"passed_time":9.982940195,"remaining_time":2.073750862},
{"learn":[0.2806838982],"iteration":828,"passed_time":9.991986311,"remaining_time":2.061073172},
{"learn":[0.2806252579],"iteration":829,"passed_time":10.0016463,"remaining_time":2.048529965},
{"learn":[0.2805945759],"iteration":830,"passed_time":10.01347753,"remaining_time":2.036435263},
{"learn":[0.2805270833],"iteration":831,"passed_time":10.02342382,"remaining_time":2.023960579},
{"learn":[0.2804673426],"iteration":832,"passed_time":10.03392629,"remaining_time":2.011603469},
{"learn":[0.2804670171],"iteration":833,"passed_time":10.04406011,"remaining_time":1.999177432},
{"learn":[0.2804239847],"iteration":834,"passed_time":10.05365737,"remaining_time":1.986650857},
{"learn":[0.2803635678],"iteration":835,"passed_time":10.06627563,"remaining_time":1.974723927},
{"learn":[0.2803355113],"iteration":836,"passed_time":10.0768021,"remaining_time":1.962387984},
{"learn":[0.2802951161],"iteration":837,"passed_time":10.08770473,"remaining_time":1.950129076},
{"learn":[0.2802148221],"iteration":838,"passed_time":10.09739754,"remaining_time":1.937641245},
{"learn":[0.2801748168],"iteration":839,"passed_time":10.10543514,"remaining_time":1.924844788},
{"learn":[0.2801557229],"iteration":840,"passed_time":10.1160653,"remaining_time":1.912549801},
{"learn":[0.2801104316],"iteration":841,"passed_time":10.12786544,"remaining_time":1.900478313},
{"learn":[0.280075473],"iteration":842,"passed_time":10.13710206,"remaining_time":1.887930039},
{"learn":[0.2800191463],"iteration":843,"passed_time":10.14578714,"remaining_time":1.87528767},
{"learn":[0.2799572393],"iteration":844,"passed_time":10.15711296,"remaining_time":1.863139063},
{"learn":[0.2799137764],"iteration":845,"passed_time":10.1661141,"remaining_time":1.850569233},
{"learn":[0.2798628719],"iteration":846,"passed_time":10.17627565,"remaining_time":1.838217444},
{"learn":[0.279791613],"iteration":847,"passed_time":10.18983138,"remaining_time":1.82647921},
{"learn":[0.2797198127],"iteration":848,"passed_time":10.20032964,"remaining_time":1.814192905},
{"learn":[0.2797045534],"iteration":849,"passed_time":10.21097233,"remaining_time":1.801936294},
{"learn":[0.2796689045],"iteration":850,"passed_time":10.21995935,"remaining_time":1.789393588},
{"learn":[0.2796209099],"iteration":851,"passed_time":10.22948112,"remaining_time":1.776952119},
{"learn":[0.2796185073],"iteration":852,"passed_time":10.23915177,"remaining_time":1.764543154},
{"learn":[0.2796022803],"iteration":853,"passed_time":10.24918989,"remaining_time":1.752203424},
{"learn":[0.2795450813],"iteration":854,"passed_time":10.26012035,"remaining_time":1.740020409},
{"learn":[0.2794996122],"iteration":855,"passed_time":10.27116994,"remaining_time":1.727860364},
{"learn":[0.2794600596],"iteration":856,"passed_time":10.2878624,"remaining_time":1.716644484},
{"learn":[0.2794090728],"iteration":857,"passed_time":10.30554821,"remaining_time":1.705580239},
{"learn":[0.2793558706],"iteration":858,"passed_time":10.3173123,"remaining_time":1.693528561},
{"learn":[0.2792808282],"iteration":859,"passed_time":10.32705067,"remaining_time":1.681147784},
{"learn":[0.2792357006],"iteration":860,"passed_time":10.33786797,"remaining_time":1.668947326},
{"learn":[0.2791885179],"iteration":861,"passed_time":10.3479651,"remaining_time":1.656634784},
{"learn":[0.2791492056],"iteration":862,"passed_time":10.35754028,"remaining_time":1.644244517},
{"learn":[0.2791210472],"iteration":863,"passed_time":10.36899479,"remaining_time":1.632156588},
{"learn":[0.2790760177],"iteration":864,"passed_time":10.38078745,"remaining_time":1.620122896},
{"learn":[0.2790293694],"iteration":865,"passed_time":10.3950463,"remaining_time":1.608471368},
{"learn":[0.2789662009],"iteration":866,"passed_time":10.40450579,"remaining_time":1.596077589},
{"learn":[0.2789219409],"iteration":867,"passed_time":10.41457543,"remaining_time":1.58378336},
{"learn":[0.2788785903],"iteration":868,"passed_time":10.42475346,"remaining_time":1.571510591},
{"learn":[0.2788051592],"iteration":869,"passed_time":10.43445123,"remaining_time":1.559170873},
{"learn":[0.2787488555],"iteration":870,"passed_time":10.4450091,"remaining_time":1.546964608},
{"learn":[0.278694992],"iteration":871,"passed_time":10.45712979,"remaining_time":1.534991529},
{"learn":[0.278693198],"iteration":872,"passed_time":10.46698957,"remaining_time":1.522689205},
{"learn":[0.278634153],"iteration":873,"passed_time":10.4777717,"remaining_time":1.510525439},
{"learn":[0.2785677674],"iteration":874,"passed_time":10.48831729,"remaining_time":1.498331041},
{"learn":[0.2785212359],"iteration":875,"passed_time":10.49887899,"remaining_time":1.486142688},
{"learn":[0.2784974259],"iteration":876,"passed_time":10.50987435,"remaining_time":1.474018866},
{"learn":[0.2784475534],"iteration":877,"passed_time":10.51954669,"remaining_time":1.461713776},
{"learn":[0.2783729937],"iteration":878,"passed_time":10.52918304,"remaining_time":1.449409724},
{"learn":[0.2783577928],"iteration":879,"passed_time":10.54149626,"remaining_time":1.437476762},
{"learn":[0.2783207231],"iteration":880,"passed_time":10.5571953,"remaining_time":1.426000273},
{"learn":[0.2782573395],"iteration":881,"passed_time":10.56864765,"remaining_time":1.413946057},
{"learn":[0.2782426351],"iteration":882,"passed_time":10.58340871,"remaining_time":1.402331618},
{"learn":[0.2781820779],"iteration":883,"passed_time":10.59795797,"remaining_time":1.390682267},
{"learn":[0.2781109892],"iteration":884,"passed_time":10.60815112,"remaining_time":1.378460315},
{"learn":[0.278072021],"iteration":885,"passed_time":10.61833121,"remaining_time":1.366241262},
{"learn":[0.2780484622],"iteration":886,"passed_time":10.63236483,"remaining_time":1.35451773},
{"learn":[0.2779950578],"iteration":887,"passed_time":10.65504648,"remaining_time":1.343879736},
{"learn":[0.2779449937],"iteration":888,"passed_time":10.67416304,"remaining_time":1.332769513},
{"learn":[0.2779038228],"iteration":889,"passed_time":10.6975275,"remaining_time":1.32216632},
{"learn":[0.2778898245],"iteration":890,"passed_time":10.71414094,"remaining_time":1.3107086},
{"learn":[0.2778465003],"iteration":891,"passed_time":10.72494837,"remaining_time":1.29853635},
{"learn":[0.2777982247],"iteration":892,"passed_time":10.73609349,"remaining_time":1.286407619},
{"learn":[0.2777939071],"iteration":893,"passed_time":10.74703067,"remaining_time":1.274256433},
{"learn":[0.2777621252],"iteration":894,"passed_time":10.75758657,"remaining_time":1.262063229},
{"learn":[0.2777206785],"iteration":895,"passed_time":10.7686911,"remaining_time":1.24993736},
{"learn":[0.2776245969],"iteration":896,"passed_time":10.77962589,"remaining_time":1.237794277},
{"learn":[0.2776069587],"iteration":897,"passed_time":10.79045283,"remaining_time":1.225641636},
{"learn":[0.277544217],"iteration":898,"passed_time":10.80159809,"remaining_time":1.213527706},
{"learn":[0.2775062455],"iteration":899,"passed_time":10.81074452,"remaining_time":1.201193835},
{"learn":[0.2774501448],"iteration":900,"passed_time":10.82972051,"remaining_time":1.189947093},
{"learn":[0.2774353246],"iteration":901,"passed_time":10.84107926,"remaining_time":1.177855618},
{"learn":[0.277397651],"iteration":902,"passed_time":10.85688751,"remaining_time":1.16624373},
{"learn":[0.2773188469],"iteration":903,"passed_time":10.86962039,"remaining_time":1.15429597},
{"learn":[0.2772854629],"iteration":904,"passed_time":10.88082767,"remaining_time":1.14218633},
{"learn":[0.2772630151],"iteration":905,"passed_time":10.90708715,"remaining_time":1.131640389},
{"learn":[0.2772240269],"iteration":906,"passed_time":10.92676809,"remaining_time":1.120385261},
{"learn":[0.27717749],"iteration":907,"passed_time":10.95112836,"remaining_time":1.109585693},
{"learn":[0.2771601912],"iteration":908,"passed_time":10.96870175,"remaining_time":1.098076853},
{"learn":[0.2770934606],"iteration":909,"passed_time":10.97971973,"remaining_time":1.085906347},
{"learn":[0.277059729],"iteration":910,"passed_time":10.99542212,"remaining_time":1.074196014},
{"learn":[0.277007782],"iteration":911,"passed_time":11.00856102,"remaining_time":1.062229572},
{"learn":[0.2770024333],"iteration":912,"passed_time":11.01931089,"remaining_time":1.050032911},
{"learn":[0.276993299],"iteration":913,"passed_time":11.02973271,"remaining_time":1.037808548},
{"learn":[0.2769465477],"iteration":914,"passed_time":11.04039946,"remaining_time":1.025610878},
{"learn":[0.2769114015],"iteration":915,"passed_time":11.05236497,"remaining_time":1.013535652},
{"learn":[0.2768950315],"iteration":916,"passed_time":11.06339604,"remaining_time":1.001376086},
{"learn":[0.2768513222],"iteration":917,"passed_time":11.08572647,"remaining_time":0.9902282904},
{"learn":[0.2768063023],"iteration":918,"passed_time":11.09649468,"remaining_time":0.9780370715},
{"learn":[0.2767445274],"iteration":919,"passed_time":11.10757583,"remaining_time":0.965876159},
{"learn":[0.2767271177],"iteration":920,"passed_time":11.11875276,"remaining_time":0.9537258071},
{"learn":[0.2767038113],"iteration":921,"passed_time":11.13228082,"remaining_time":0.9417764685},
{"learn":[0.276656305],"iteration":922,"passed_time":11.15241835,"remaining_time":0.9303750954},
{"learn":[0.2766137092],"iteration":923,"passed_time":11.16540316,"remaining_time":0.9183664937},
{"learn":[0.2765946465],"iteration":924,"passed_time":11.17696304,"remaining_time":0.9062402467},
{"learn":[0.2765343075],"iteration":925,"passed_time":11.18787859,"remaining_time":0.8940637317},
{"learn":[0.276496391],"iteration":926,"passed_time":11.20145851,"remaining_time":0.8820997529},
{"learn":[0.2764469063],"iteration":927,"passed_time":11.21383104,"remaining_time":0.8700386149},
{"learn":[0.2763974146],"iteration":928,"passed_time":11.22350561,"remaining_time":0.8577706114},
{"learn":[0.2763592584],"iteration":929,"passed_time":11.23376721,"remaining_time":0.8455523705},
{"learn":[0.2762680599],"iteration":930,"passed_time":11.25043174,"remaining_time":0.8338128787},
{"learn":[0.2762417726],"iteration":931,"passed_time":11.26483848,"remaining_time":0.8218980867},
{"learn":[0.2761918312],"iteration":932,"passed_time":11.27591427,"remaining_time":0.8097387524},
{"learn":[0.2761289397],"iteration":933,"passed_time":11.28806468,"remaining_time":0.7976576757},
{"learn":[0.2760942099],"iteration":934,"passed_time":11.29813846,"remaining_time":0.7854320854},
{"learn":[0.2760675044],"iteration":935,"passed_time":11.3079717,"remaining_time":0.7731946464},
{"learn":[0.2760394468],"iteration":936,"passed_time":11.31726353,"remaining_time":0.7609259365},
{"learn":[0.2759656461],"iteration":937,"passed_time":11.32840414,"remaining_time":0.7487857749},
{"learn":[0.2758818178],"iteration":938,"passed_time":11.33930517,"remaining_time":0.736632178},
{"learn":[0.2757925175],"iteration":939,"passed_time":11.34973678,"remaining_time":0.724451284},
{"learn":[0.2757661388],"iteration":940,"passed_time":11.36141357,"remaining_time":0.7123521791},
{"learn":[0.2757257203],"iteration":941,"passed_time":11.37162838,"remaining_time":0.7001639554},
{"learn":[0.2756700667],"iteration":942,"passed_time":11.38644745,"remaining_time":0.6882582236},
{"learn":[0.275629424],"iteration":943,"passed_time":11.39736104,"remaining_time":0.6761146377},
{"learn":[0.2756148071],"iteration":944,"passed_time":11.40940457,"remaining_time":0.6640394196},
{"learn":[0.2755723571],"iteration":945,"passed_time":11.41961562,"remaining_time":0.6518596656},
{"learn":[0.275514991],"iteration":946,"passed_time":11.43153771,"remaining_time":0.6397798296},
{"learn":[0.2754952748],"iteration":947,"passed_time":11.4404721,"remaining_time":0.6275364443},
{"learn":[0.2754527148],"iteration":948,"passed_time":11.45114071,"remaining_time":0.6153932309},
{"learn":[0.2754511236],"iteration":949,"passed_time":11.46126772,"remaining_time":0.6032246168},
{"learn":[0.2754236783],"iteration":950,"passed_time":11.47213291,"remaining_time":0.5910983306},
{"learn":[0.2753940017],"iteration":951,"passed_time":11.4816062,"remaining_time":0.5789045142},
{"learn":[0.2753195112],"iteration":952,"passed_time":11.49242458,"remaining_time":0.5667827443},
{"learn":[0.2752766122],"iteration":953,"passed_time":11.50386054,"remaining_time":0.5546934852},
{"learn":[0.2752574162],"iteration":954,"passed_time":11.51444232,"remaining_time":0.5425653448},
{"learn":[0.2752214915],"iteration":955,"passed_time":11.52514985,"remaining_time":0.5304462276},
{"learn":[0.2751658027],"iteration":956,"passed_time":11.53494845,"remaining_time":0.51828922},
{"learn":[0.2751369322],"iteration":957,"passed_time":11.54493309,"remaining_time":0.5061452922},
{"learn":[0.2750611183],"iteration":958,"passed_time":11.55648327,"remaining_time":0.494072799},
{"learn":[0.2750594603],"iteration":959,"passed_time":11.56814915,"remaining_time":0.4820062146},
{"learn":[0.2750055133],"iteration":960,"passed_time":11.57840531,"remaining_time":0.4698832541},
{"learn":[0.2749444819],"iteration":961,"passed_time":11.58779223,"remaining_time":0.4577298386},
{"learn":[0.2749237646],"iteration":962,"passed_time":11.59767176,"remaining_time":0.4456010958},
{"learn":[0.2748764409],"iteration":963,"passed_time":11.6070579,"remaining_time":0.4334585939},
{"learn":[0.2748331566],"iteration":964,"passed_time":11.62062705,"remaining_time":0.42147352},
{"learn":[0.2747686805],"iteration":965,"passed_time":11.6334475,"remaining_time":0.4094588148},
{"learn":[0.2747277386],"iteration":966,"passed_time":11.64425265,"remaining_time":0.3973736685},
{"learn":[0.2746961018],"iteration":967,"passed_time":11.65409401,"remaining_time":0.3852593061},
{"learn":[0.2746162677],"iteration":968,"passed_time":11.66561517,"remaining_time":0.3732033747},
{"learn":[0.2745801806],"iteration":969,"passed_time":11.67709438,"remaining_time":0.3611472489},
{"learn":[0.2745138434],"iteration":970,"passed_time":11.68697709,"remaining_time":0.3490446298},
{"learn":[0.2744517749],"iteration":971,"passed_time":11.69609274,"remaining_time":0.3369244824},
{"learn":[0.2744412097],"iteration":972,"passed_time":11.70658773,"remaining_time":0.3248487859},
{"learn":[0.274406769],"iteration":973,"passed_time":11.71699505,"remaining_time":0.3127739951},
{"learn":[0.2743982652],"iteration":974,"passed_time":11.72667492,"remaining_time":0.3006839722},
{"learn":[0.2743484665],"iteration":975,"passed_time":11.73703683,"remaining_time":0.2886156597},
{"learn":[0.2743199741],"iteration":976,"passed_time":11.74756176,"remaining_time":0.2765546781},
{"learn":[0.2742588768],"iteration":977,"passed_time":11.7585482,"remaining_time":0.2645072191},
{"learn":[0.2742184744],"iteration":978,"passed_time":11.76838099,"remaining_time":0.2524371817},
{"learn":[0.2741592242],"iteration":979,"passed_time":11.77872774,"remaining_time":0.2403821988},
{"learn":[0.2740981951],"iteration":980,"passed_time":11.78917185,"remaining_time":0.2283325843},
{"learn":[0.274026936],"iteration":981,"passed_time":11.80017827,"remaining_time":0.2162965466},
{"learn":[0.273979647],"iteration":982,"passed_time":11.81258663,"remaining_time":0.2042868492},
{"learn":[0.2739193466],"iteration":983,"passed_time":11.82352889,"remaining_time":0.1922525022},
{"learn":[0.2738927393],"iteration":984,"passed_time":11.83397719,"remaining_time":0.1802128507},
{"learn":[0.2738615624],"iteration":985,"passed_time":11.84313313,"remaining_time":0.1681580769},
{"learn":[0.2738256127],"iteration":986,"passed_time":11.8536295,"remaining_time":0.1561268323},
{"learn":[0.2738236151],"iteration":987,"passed_time":11.86422134,"remaining_time":0.1440998544},
{"learn":[0.2737724266],"iteration":988,"passed_time":11.873807,"remaining_time":0.1320645875},
{"learn":[0.2737447002],"iteration":989,"passed_time":11.88375662,"remaining_time":0.1200379457},
{"learn":[0.2736893156],"iteration":990,"passed_time":11.89225597,"remaining_time":0.1080023247},
{"learn":[0.2736786738],"iteration":991,"passed_time":11.90239134,"remaining_time":0.09598702695},
{"learn":[0.2736297048],"iteration":992,"passed_time":11.9130056,"remaining_time":0.08397889142},
{"learn":[0.2736034582],"iteration":993,"passed_time":11.92371494,"remaining_time":0.07197413447},
{"learn":[0.2735619715],"iteration":994,"passed_time":11.93428912,"remaining_time":0.05997130213},
{"learn":[0.2735497421],"iteration":995,"passed_time":11.94384047,"remaining_time":0.04796723081},
{"learn":[0.2734923222],"iteration":996,"passed_time":11.95198056,"remaining_time":0.03596383318},
{"learn":[0.2734573593],"iteration":997,"passed_time":11.96188755,"remaining_time":0.02397171853},
{"learn":[0.2734080755],"iteration":998,"passed_time":11.97165166,"remaining_time":0.01198363529},
{"learn":[0.2733558958],"iteration":999,"passed_time":11.9820854,"remaining_time":0}
]}